(module BS_SMD_Packages:BS_NICHICON_5x5.8 (layer F.Cu)
  (descr "SMT capacitor, aluminium electrolytic, 5x5.8")
  (fp_text reference BS_NICHICON_5x5.8 (at 0 -3.5) (layer F.SilkS)
    (effects (font (size 1 1) (thickness 0.1778)))
  )
  (fp_text value C*** (at 0 3.5) (layer F.SilkS) hide
    (effects (font (size 1 1) (thickness 0.1778)))
  )
  (fp_line (start -2.35 0.95) (end -1.75 0.95) (layer F.SilkS) (width 0.2))
  (fp_line (start -1.75 0.95) (end -1.75 1.75) (layer F.SilkS) (width 0.2))
  (fp_line (start -1.75 1.75) (end -2.2 1.05) (layer F.SilkS) (width 0.2))
  (fp_line (start -2.2 1.05) (end -1.85 1.05) (layer F.SilkS) (width 0.2))
  (fp_line (start -1.85 1.05) (end -1.85 1.4) (layer F.SilkS) (width 0.2))
  (fp_line (start -1.85 1.4) (end -2 1.1) (layer F.SilkS) (width 0.2))
  (fp_line (start -2.35 -0.95) (end -1.75 -0.95) (layer F.SilkS) (width 0.2))
  (fp_line (start -1.75 -0.95) (end -1.75 -1.8) (layer F.SilkS) (width 0.2))
  (fp_line (start -1.75 -1.8) (end -2.2 -1.05) (layer F.SilkS) (width 0.2))
  (fp_line (start -2.2 -1.05) (end -1.85 -1.05) (layer F.SilkS) (width 0.2))
  (fp_line (start -1.85 -1.05) (end -1.85 -1.4) (layer F.SilkS) (width 0.2))
  (fp_line (start -1.85 -1.4) (end -2 -1.15) (layer F.SilkS) (width 0.2))
  (fp_arc (start 0 0) (end -2.35 -0.95) (angle 135.9) (layer F.SilkS) (width 0.2))
  (fp_arc (start 0 0) (end 2.35 0.95) (angle 135.9) (layer F.SilkS) (width 0.2))
  (fp_line (start -2.7 -2.7) (end -2.7 -0.95) (layer F.SilkS) (width 0.2))
  (fp_line (start 2.7 -1.7) (end 2.7 -0.95) (layer F.SilkS) (width 0.2))
  (fp_line (start -2.7 -2.7) (end 1.7 -2.7) (layer F.SilkS) (width 0.2))
  (fp_line (start 1.7 -2.7) (end 2.7 -1.7) (layer F.SilkS) (width 0.2))
  (fp_line (start 2.7 0.95) (end 2.7 1.7) (layer F.SilkS) (width 0.2))
  (fp_line (start 2.7 1.7) (end 1.7 2.7) (layer F.SilkS) (width 0.2))
  (fp_line (start 1.7 2.7) (end -2.7 2.7) (layer F.SilkS) (width 0.2))
  (fp_line (start -2.7 2.7) (end -2.7 0.95) (layer F.SilkS) (width 0.2))
  (fp_line (start 0.6 -1.4) (end 1.4 -1.4) (layer F.SilkS) (width 0.2))
  (fp_line (start 1 -1) (end 1 -1.8) (layer F.SilkS) (width 0.2))
  (pad 1 smd rect (at 1.8 0) (size 2.8 1.3) (layers F.Cu F.Paste F.Mask))
  (pad 2 smd rect (at -1.8 0) (size 2.8 1.3) (layers F.Cu F.Paste F.Mask))
  (model smd/Capacitors/c_elec_5x5_8.wrl
    (at (xyz 0 0 0))
    (scale (xyz 1 1 1))
    (rotate (xyz 0 0 0))
  )
)
