(module BS_SMD0603JUMPER (layer F.Cu)
  (attr smd)
  (fp_text reference BS_SMD0603JUMPER (at 2 0 90) (layer F.SilkS)
    (effects (font (size 1 1) (thickness 0.1778)))
  )
  (fp_text value Val** (at -2 0 90) (layer F.SilkS)
    (effects (font (size 1 1) (thickness 0.1778)))
  )
  (fp_line (start -1.375 0.8) (end 1.375 0.8) (layer F.SilkS) (width 0.2))
  (fp_line (start -1.375 -0.8) (end 1.375 -0.8) (layer F.SilkS) (width 0.2))
  (fp_line (start 1.375 -0.8) (end 1.375 0.8) (layer F.SilkS) (width 0.2))
  (fp_line (start -1.375 0.8) (end -1.375 -0.8) (layer F.SilkS) (width 0.2))
  (pad 1 smd rect (at -0.58 0) (size 0.955 1) (layers F.Cu F.Paste F.Mask))
  (pad 2 smd rect (at 0.58 0) (size 0.955 1) (layers F.Cu F.Paste F.Mask))
)
