(module BS_SMD_Packages:BS_SSOP-20 (layer F.Cu)
  (descr "SSOP 20 pins")
  (tags "CMS SSOP SMD")
  (attr smd)
  (fp_text reference BS_SSOP-20 (at 0 -0.8) (layer F.SilkS)
    (effects (font (size 1 1) (thickness 0.1778)))
  )
  (fp_text value Val** (at 0 0.9) (layer F.SilkS)
    (effects (font (size 1 1) (thickness 0.1778)))
  )
  (fp_arc (start -3.8 0) (end -3.2 0) (angle 90) (layer F.SilkS) (width 0.2))
  (fp_arc (start -3.8 0) (end -3.8 -0.6) (angle 90) (layer F.SilkS) (width 0.2))
  (fp_line (start -3.8 -2.0) (end -3.8 -0.6) (layer F.SilkS) (width 0.2))
  (fp_line (start 3.8 -2.0) (end 3.8 2.0) (layer F.SilkS) (width 0.2))
  (fp_line (start 3.8 2.0) (end -3.8 2.0) (layer F.SilkS) (width 0.2))
  (fp_line (start -3.8 2.0) (end -3.8 0.6) (layer F.SilkS) (width 0.2))
  (fp_line (start -3.8 -2.0) (end 3.8 -2.0) (layer F.SilkS) (width 0.2))
  (fp_circle (center -3.1 1.3) (end -3.1 1.0) (layer F.SilkS) (width 0.2))
  (pad 1 smd rect (at -2.925 3.4) (size 0.42 1.7) (layers F.Cu F.Paste F.Mask))
  (pad 2 smd rect (at -2.275 3.4) (size 0.42 1.7) (layers F.Cu F.Paste F.Mask))
  (pad 3 smd rect (at -1.625 3.4) (size 0.42 1.7) (layers F.Cu F.Paste F.Mask))
  (pad 4 smd rect (at -0.975 3.4) (size 0.42 1.7) (layers F.Cu F.Paste F.Mask))
  (pad 5 smd rect (at -0.325 3.4) (size 0.42 1.7) (layers F.Cu F.Paste F.Mask))
  (pad 6 smd rect (at 0.325 3.4) (size 0.42 1.7) (layers F.Cu F.Paste F.Mask))
  (pad 7 smd rect (at 0.975 3.4) (size 0.42 1.7) (layers F.Cu F.Paste F.Mask))
  (pad 8 smd rect (at 1.625 3.4) (size 0.42 1.7) (layers F.Cu F.Paste F.Mask))
  (pad 9 smd rect (at 2.275 3.4) (size 0.42 1.7) (layers F.Cu F.Paste F.Mask))
  (pad 10 smd rect (at 2.925 3.4) (size 0.42 1.7) (layers F.Cu F.Paste F.Mask))
  (pad 11 smd rect (at 2.925 -3.4) (size 0.42 1.7) (layers F.Cu F.Paste F.Mask))
  (pad 12 smd rect (at 2.275 -3.4) (size 0.42 1.7) (layers F.Cu F.Paste F.Mask))
  (pad 13 smd rect (at 1.625 -3.4) (size 0.42 1.7) (layers F.Cu F.Paste F.Mask))
  (pad 14 smd rect (at 0.975 -3.4) (size 0.42 1.7) (layers F.Cu F.Paste F.Mask))
  (pad 15 smd rect (at 0.325 -3.4) (size 0.42 1.7) (layers F.Cu F.Paste F.Mask))
  (pad 16 smd rect (at -0.325 -3.4) (size 0.42 1.7) (layers F.Cu F.Paste F.Mask))
  (pad 17 smd rect (at -0.975 -3.4) (size 0.42 1.7) (layers F.Cu F.Paste F.Mask))
  (pad 18 smd rect (at -1.625 -3.4) (size 0.42 1.7) (layers F.Cu F.Paste F.Mask))
  (pad 19 smd rect (at -2.275 -3.4) (size 0.42 1.7) (layers F.Cu F.Paste F.Mask))
  (pad 20 smd rect (at -2.925 -3.4) (size 0.42 1.7) (layers F.Cu F.Paste F.Mask))
  (model smd/cms_so20.wrl
    (at (xyz 0 0 0))
    (scale (xyz 0.254 0.47 0.3))
    (rotate (xyz 0 0 0))
  )
)
