(module BS_SMD_Packages:BS_SMD0805R (layer F.Cu)
  (attr smd)
  (fp_text reference BS_SMD0805R (at 2.6 0 90) (layer F.SilkS)
    (effects (font (size 1 1) (thickness 0.1778)))
  )
  (fp_text value Val** (at -2.6 0 90) (layer F.SilkS)
    (effects (font (size 1 1) (thickness 0.1778)))
  )
  (fp_line (start -1.775 1.05) (end 1.775 1.05) (layer F.SilkS) (width 0.2))
  (fp_line (start -1.775 -1.05) (end 1.775 -1.05) (layer F.SilkS) (width 0.2))
  (fp_line (start 1.775 -1.05) (end 1.775 1.05) (layer F.SilkS) (width 0.2))
  (fp_line (start -1.775 1.05) (end -1.775 -1.05) (layer F.SilkS) (width 0.2))
  (pad 1 smd rect (at -0.9 0) (size 1.15 1.5) (layers F.Cu F.Paste F.Mask))
  (pad 2 smd rect (at 0.9 0) (size 1.15 1.5) (layers F.Cu F.Paste F.Mask))
  (model smd/resistors/R0805.wrl
    (at (xyz 0 0 0.001))
    (scale (xyz 0.5 0.45 0.5))
    (rotate (xyz 0 0 0))
  )
)
