(module BS_SCORETRONICS_FLIPDOT_1872R (layer F.Cu)
  (fp_text reference BS_SCORETRONICS_FLIPDOT_1872R (at 5.08 -10.414) (layer F.SilkS)
    (effects (font (size 1 1) (thickness 0.15)))
  )
  (fp_text value VAL** (at 0 10.414) (layer F.SilkS)
    (effects (font (size 1 1) (thickness 0.15)))
  )
  (fp_arc (start 20.701 0) (end -10.0076 8.0518) (angle 349) (layer F.SilkS) (width 0.2))
  (fp_line (start -17.272 6.35) (end -10.16 8.128) (layer F.SilkS) (width 0.2))
  (fp_line (start -4.445 9.525) (end -5.461 9.271) (layer F.SilkS) (width 0.2))
  (fp_line (start 58.674 6.35) (end 45.847 9.525) (layer F.SilkS) (width 0.2))
  (fp_line (start 58.674 -6.35) (end 45.847 -9.525) (layer F.SilkS) (width 0.2))
  (fp_line (start -17.272 -6.35) (end -4.445 -9.525) (layer F.SilkS) (width 0.2))
  (fp_line (start -4.445 9.525) (end 45.847 9.525) (layer F.SilkS) (width 0.2))
  (fp_line (start 58.674 6.35) (end 58.674 -6.35) (layer F.SilkS) (width 0.2))
  (fp_line (start 45.847 -9.525) (end -4.445 -9.525) (layer F.SilkS) (width 0.2))
  (fp_circle (center -8.2804 10.6426) (end -11.3792 10.6426) (layer F.SilkS) (width 0.2))
  (fp_line (start -17.272 -6.35) (end -17.272 6.35) (layer F.SilkS) (width 0.2))
  (pad 1 thru_hole circle (at 0 0) (size 3 3) (drill 1.3) (layers *.Cu *.Mask F.SilkS))
  (pad 2 thru_hole circle (at -5.3848 -5.3848) (size 3 3) (drill 1.3) (layers *.Cu *.Mask F.SilkS))
  (pad 3 thru_hole circle (at 5.3848 5.3848) (size 3 3) (drill 1.3) (layers *.Cu *.Mask F.SilkS))
  (pad "" np_thru_hole circle (at 45.1104 0) (size 3.6 3.6) (drill 3.2) (layers *.Cu *.Mask F.SilkS))
  (pad "" np_thru_hole circle (at -8.2804 10.6426) (size 3.6 3.6) (drill 3.2) (layers *.Cu *.Mask F.SilkS))
)
