(module BS_SCORETRONICS_FLIPDOT_972R (layer F.Cu)
  (fp_text reference BS_SCORETRONICS_FLIPDOT_972R (at 5.08 -10.414) (layer F.SilkS)
    (effects (font (size 1 1) (thickness 0.15)))
  )
  (fp_text value VAL** (at 0 10.414) (layer F.SilkS)
    (effects (font (size 1 1) (thickness 0.15)))
  )
  (fp_circle (center 5.715 0) (end 19.9898 0) (layer F.SilkS) (width 0.2))
  (fp_line (start -17.272 6.35) (end -10.16 8.128) (layer F.SilkS) (width 0.2))
  (fp_line (start -4.445 9.525) (end -5.461 9.271) (layer F.SilkS) (width 0.2))
  (fp_line (start 28.702 6.35) (end 15.875 9.525) (layer F.SilkS) (width 0.2))
  (fp_line (start 28.702 -6.35) (end 15.875 -9.525) (layer F.SilkS) (width 0.2))
  (fp_line (start -17.272 -6.35) (end -4.445 -9.525) (layer F.SilkS) (width 0.2))
  (fp_line (start -4.445 9.525) (end 15.875 9.525) (layer F.SilkS) (width 0.2))
  (fp_line (start 28.702 6.35) (end 28.702 -6.35) (layer F.SilkS) (width 0.2))
  (fp_line (start 15.875 -9.525) (end -4.445 -9.525) (layer F.SilkS) (width 0.2))
  (fp_circle (center -8.2804 10.6426) (end -11.3792 10.6426) (layer F.SilkS) (width 0.2))
  (fp_line (start -17.272 -6.35) (end -17.272 6.35) (layer F.SilkS) (width 0.2))
  (pad 1 thru_hole circle (at 0 0) (size 3 3) (drill 1.3) (layers *.Cu *.Mask F.SilkS))
  (pad 2 thru_hole circle (at -5.3848 -5.3848) (size 3 3) (drill 1.3) (layers *.Cu *.Mask F.SilkS))
  (pad 3 thru_hole circle (at 5.3848 5.3848) (size 3 3) (drill 1.3) (layers *.Cu *.Mask F.SilkS))
  (pad "" np_thru_hole circle (at 15.1384 0) (size 3.6 3.6) (drill 3.2) (layers *.Cu *.Mask F.SilkS))
  (pad "" np_thru_hole circle (at -8.2804 10.6426) (size 3.6 3.6) (drill 3.2) (layers *.Cu *.Mask F.SilkS))
)
