(module BS_HEADER_A_1X26 (layer F.Cu)
  (descr "1 pin")
  (tags "CONN DEV")
  (fp_text reference BS_HEADER_A_1X26 (at 0 2.286) (layer F.SilkS)
    (effects (font (size 1 1) (thickness 0.1778)))
  )
  (fp_text value Val** (at 0 0) (layer F.SilkS) hide
    (effects (font (size 1 1) (thickness 0.1778)))
  )
  (fp_line (start -30.48 -4.064) (end -33.02 -1.524) (layer F.SilkS) (width 0.2))
  (fp_line (start -33.02 -4.064) (end -30.48 -1.524) (layer F.SilkS) (width 0.2))
  (fp_line (start -31.877 -4.191) (end -31.877 -10.033) (layer F.SilkS) (width 0.2))
  (fp_line (start -31.877 -10.033) (end -31.623 -10.033) (layer F.SilkS) (width 0.2))
  (fp_line (start -31.623 -10.033) (end -31.623 -4.191) (layer F.SilkS) (width 0.2))
  (fp_line (start -31.623 -4.191) (end -31.75 -4.191) (layer F.SilkS) (width 0.2))
  (fp_line (start -31.75 -4.191) (end -31.75 -10.033) (layer F.SilkS) (width 0.2))
  (fp_line (start -6.604 -1.524) (end -6.604 -1.32) (layer F.SilkS) (width 0.2))
  (fp_line (start -6.096 -1.524) (end -6.096 -1.32) (layer F.SilkS) (width 0.2))
  (fp_line (start -4.064 -1.524) (end -4.064 -1.32) (layer F.SilkS) (width 0.2))
  (fp_line (start -3.556 -1.524) (end -3.556 -1.32) (layer F.SilkS) (width 0.2))
  (fp_line (start -1.524 -1.524) (end -1.524 -1.32) (layer F.SilkS) (width 0.2))
  (fp_line (start -1.016 -1.524) (end -1.016 -1.32) (layer F.SilkS) (width 0.2))
  (fp_line (start 1.016 -1.524) (end 1.016 -1.32) (layer F.SilkS) (width 0.2))
  (fp_line (start 1.524 -1.524) (end 1.524 -1.32) (layer F.SilkS) (width 0.2))
  (fp_line (start 11.684 -1.524) (end 11.684 -1.32) (layer F.SilkS) (width 0.2))
  (fp_line (start 11.176 -1.524) (end 11.176 -1.32) (layer F.SilkS) (width 0.2))
  (fp_line (start 9.144 -1.524) (end 9.144 -1.32) (layer F.SilkS) (width 0.2))
  (fp_line (start 8.636 -1.524) (end 8.636 -1.32) (layer F.SilkS) (width 0.2))
  (fp_line (start 6.604 -1.524) (end 6.604 -1.32) (layer F.SilkS) (width 0.2))
  (fp_line (start 6.096 -1.524) (end 6.096 -1.32) (layer F.SilkS) (width 0.2))
  (fp_line (start 4.064 -1.524) (end 4.064 -1.32) (layer F.SilkS) (width 0.2))
  (fp_line (start 3.556 -1.524) (end 3.556 -1.32) (layer F.SilkS) (width 0.2))
  (fp_line (start 23.876 -1.524) (end 23.876 -1.32) (layer F.SilkS) (width 0.2))
  (fp_line (start 24.384 -1.524) (end 24.384 -1.32) (layer F.SilkS) (width 0.2))
  (fp_line (start 26.416 -1.524) (end 26.416 -1.32) (layer F.SilkS) (width 0.2))
  (fp_line (start 26.924 -1.524) (end 26.924 -1.32) (layer F.SilkS) (width 0.2))
  (fp_line (start 28.956 -1.524) (end 28.956 -1.32) (layer F.SilkS) (width 0.2))
  (fp_line (start 29.464 -1.524) (end 29.464 -1.32) (layer F.SilkS) (width 0.2))
  (fp_line (start 31.496 -1.524) (end 31.496 -1.32) (layer F.SilkS) (width 0.2))
  (fp_line (start 32.004 -1.524) (end 32.004 -1.32) (layer F.SilkS) (width 0.2))
  (fp_line (start 21.844 -1.524) (end 21.844 -1.32) (layer F.SilkS) (width 0.2))
  (fp_line (start 21.336 -1.524) (end 21.336 -1.32) (layer F.SilkS) (width 0.2))
  (fp_line (start 19.304 -1.524) (end 19.304 -1.32) (layer F.SilkS) (width 0.2))
  (fp_line (start 18.796 -1.524) (end 18.796 -1.32) (layer F.SilkS) (width 0.2))
  (fp_line (start 16.764 -1.524) (end 16.764 -1.32) (layer F.SilkS) (width 0.2))
  (fp_line (start 16.256 -1.524) (end 16.256 -1.32) (layer F.SilkS) (width 0.2))
  (fp_line (start 14.224 -1.524) (end 14.224 -1.32) (layer F.SilkS) (width 0.2))
  (fp_line (start 13.716 -1.524) (end 13.716 -1.32) (layer F.SilkS) (width 0.2))
  (fp_line (start -26.924 -1.524) (end -26.924 -1.32) (layer F.SilkS) (width 0.2))
  (fp_line (start -26.416 -1.524) (end -26.416 -1.32) (layer F.SilkS) (width 0.2))
  (fp_line (start -24.384 -1.524) (end -24.384 -1.32) (layer F.SilkS) (width 0.2))
  (fp_line (start -23.876 -1.524) (end -23.876 -1.32) (layer F.SilkS) (width 0.2))
  (fp_line (start -21.844 -1.524) (end -21.844 -1.32) (layer F.SilkS) (width 0.2))
  (fp_line (start -21.336 -1.524) (end -21.336 -1.32) (layer F.SilkS) (width 0.2))
  (fp_line (start -19.304 -1.524) (end -19.304 -1.32) (layer F.SilkS) (width 0.2))
  (fp_line (start -18.796 -1.524) (end -18.796 -1.32) (layer F.SilkS) (width 0.2))
  (fp_line (start -8.636 -1.524) (end -8.636 -1.32) (layer F.SilkS) (width 0.2))
  (fp_line (start -9.144 -1.524) (end -9.144 -1.32) (layer F.SilkS) (width 0.2))
  (fp_line (start -11.176 -1.524) (end -11.176 -1.32) (layer F.SilkS) (width 0.2))
  (fp_line (start -11.684 -1.524) (end -11.684 -1.32) (layer F.SilkS) (width 0.2))
  (fp_line (start -13.716 -1.524) (end -13.716 -1.32) (layer F.SilkS) (width 0.2))
  (fp_line (start -14.224 -1.524) (end -14.224 -1.32) (layer F.SilkS) (width 0.2))
  (fp_line (start -16.256 -1.524) (end -16.256 -1.32) (layer F.SilkS) (width 0.2))
  (fp_line (start -16.764 -1.524) (end -16.764 -1.32) (layer F.SilkS) (width 0.2))
  (fp_line (start -32.004 -1.524) (end -32.004 -1.32) (layer F.SilkS) (width 0.2))
  (fp_line (start -31.496 -1.524) (end -31.496 -1.32) (layer F.SilkS) (width 0.2))
  (fp_line (start -29.464 -1.524) (end -29.464 -1.32) (layer F.SilkS) (width 0.2))
  (fp_line (start -28.956 -1.524) (end -28.956 -1.32) (layer F.SilkS) (width 0.2))
  (fp_line (start 30.48 -1.524) (end 33.02 -1.524) (layer F.SilkS) (width 0.2))
  (fp_line (start 31.496 -4.064) (end 31.496 -10.16) (layer F.SilkS) (width 0.2))
  (fp_line (start 31.496 -10.16) (end 32.004 -10.16) (layer F.SilkS) (width 0.2))
  (fp_line (start 32.004 -10.16) (end 32.004 -4.064) (layer F.SilkS) (width 0.2))
  (fp_line (start 33.02 -4.064) (end 30.48 -4.064) (layer F.SilkS) (width 0.2))
  (fp_line (start 33.02 -1.524) (end 33.02 -4.064) (layer F.SilkS) (width 0.2))
  (fp_line (start 30.48 -1.524) (end 30.48 -4.064) (layer F.SilkS) (width 0.2))
  (fp_line (start -10.16 -1.524) (end -10.16 -4.064) (layer F.SilkS) (width 0.2))
  (fp_line (start -10.16 -1.524) (end -7.62 -1.524) (layer F.SilkS) (width 0.2))
  (fp_line (start -7.62 -1.524) (end -7.62 -4.064) (layer F.SilkS) (width 0.2))
  (fp_line (start -9.144 -4.064) (end -9.144 -10.16) (layer F.SilkS) (width 0.2))
  (fp_line (start -9.144 -10.16) (end -8.636 -10.16) (layer F.SilkS) (width 0.2))
  (fp_line (start -8.636 -10.16) (end -8.636 -4.064) (layer F.SilkS) (width 0.2))
  (fp_line (start -7.62 -4.064) (end -10.16 -4.064) (layer F.SilkS) (width 0.2))
  (fp_line (start -5.08 -4.064) (end -7.62 -4.064) (layer F.SilkS) (width 0.2))
  (fp_line (start -6.096 -10.16) (end -6.096 -4.064) (layer F.SilkS) (width 0.2))
  (fp_line (start -6.604 -10.16) (end -6.096 -10.16) (layer F.SilkS) (width 0.2))
  (fp_line (start -6.604 -4.064) (end -6.604 -10.16) (layer F.SilkS) (width 0.2))
  (fp_line (start -5.08 -1.524) (end -5.08 -4.064) (layer F.SilkS) (width 0.2))
  (fp_line (start -7.62 -1.524) (end -5.08 -1.524) (layer F.SilkS) (width 0.2))
  (fp_line (start -7.62 -1.524) (end -7.62 -4.064) (layer F.SilkS) (width 0.2))
  (fp_line (start -2.54 -1.524) (end -2.54 -4.064) (layer F.SilkS) (width 0.2))
  (fp_line (start -2.54 -1.524) (end 0 -1.524) (layer F.SilkS) (width 0.2))
  (fp_line (start 0 -1.524) (end 0 -4.064) (layer F.SilkS) (width 0.2))
  (fp_line (start -1.524 -4.064) (end -1.524 -10.16) (layer F.SilkS) (width 0.2))
  (fp_line (start -1.524 -10.16) (end -1.016 -10.16) (layer F.SilkS) (width 0.2))
  (fp_line (start -1.016 -10.16) (end -1.016 -4.064) (layer F.SilkS) (width 0.2))
  (fp_line (start 0 -4.064) (end -2.54 -4.064) (layer F.SilkS) (width 0.2))
  (fp_line (start -2.54 -4.064) (end -5.08 -4.064) (layer F.SilkS) (width 0.2))
  (fp_line (start -3.556 -10.16) (end -3.556 -4.064) (layer F.SilkS) (width 0.2))
  (fp_line (start -4.064 -10.16) (end -3.556 -10.16) (layer F.SilkS) (width 0.2))
  (fp_line (start -4.064 -4.064) (end -4.064 -10.16) (layer F.SilkS) (width 0.2))
  (fp_line (start -2.54 -1.524) (end -2.54 -4.064) (layer F.SilkS) (width 0.2))
  (fp_line (start -5.08 -1.524) (end -2.54 -1.524) (layer F.SilkS) (width 0.2))
  (fp_line (start -5.08 -1.524) (end -5.08 -4.064) (layer F.SilkS) (width 0.2))
  (fp_line (start 5.08 -1.524) (end 5.08 -4.064) (layer F.SilkS) (width 0.2))
  (fp_line (start 5.08 -1.524) (end 7.62 -1.524) (layer F.SilkS) (width 0.2))
  (fp_line (start 7.62 -1.524) (end 7.62 -4.064) (layer F.SilkS) (width 0.2))
  (fp_line (start 6.096 -4.064) (end 6.096 -10.16) (layer F.SilkS) (width 0.2))
  (fp_line (start 6.096 -10.16) (end 6.604 -10.16) (layer F.SilkS) (width 0.2))
  (fp_line (start 6.604 -10.16) (end 6.604 -4.064) (layer F.SilkS) (width 0.2))
  (fp_line (start 7.62 -4.064) (end 5.08 -4.064) (layer F.SilkS) (width 0.2))
  (fp_line (start 10.16 -4.064) (end 7.62 -4.064) (layer F.SilkS) (width 0.2))
  (fp_line (start 9.144 -10.16) (end 9.144 -4.064) (layer F.SilkS) (width 0.2))
  (fp_line (start 8.636 -10.16) (end 9.144 -10.16) (layer F.SilkS) (width 0.2))
  (fp_line (start 8.636 -4.064) (end 8.636 -10.16) (layer F.SilkS) (width 0.2))
  (fp_line (start 10.16 -1.524) (end 10.16 -4.064) (layer F.SilkS) (width 0.2))
  (fp_line (start 7.62 -1.524) (end 10.16 -1.524) (layer F.SilkS) (width 0.2))
  (fp_line (start 7.62 -1.524) (end 7.62 -4.064) (layer F.SilkS) (width 0.2))
  (fp_line (start 2.54 -1.524) (end 2.54 -4.064) (layer F.SilkS) (width 0.2))
  (fp_line (start 2.54 -1.524) (end 5.08 -1.524) (layer F.SilkS) (width 0.2))
  (fp_line (start 5.08 -1.524) (end 5.08 -4.064) (layer F.SilkS) (width 0.2))
  (fp_line (start 3.556 -4.064) (end 3.556 -10.16) (layer F.SilkS) (width 0.2))
  (fp_line (start 3.556 -10.16) (end 4.064 -10.16) (layer F.SilkS) (width 0.2))
  (fp_line (start 4.064 -10.16) (end 4.064 -4.064) (layer F.SilkS) (width 0.2))
  (fp_line (start 5.08 -4.064) (end 2.54 -4.064) (layer F.SilkS) (width 0.2))
  (fp_line (start 2.54 -4.064) (end 0 -4.064) (layer F.SilkS) (width 0.2))
  (fp_line (start 1.524 -10.16) (end 1.524 -4.064) (layer F.SilkS) (width 0.2))
  (fp_line (start 1.016 -10.16) (end 1.524 -10.16) (layer F.SilkS) (width 0.2))
  (fp_line (start 1.016 -4.064) (end 1.016 -10.16) (layer F.SilkS) (width 0.2))
  (fp_line (start 2.54 -1.524) (end 2.54 -4.064) (layer F.SilkS) (width 0.2))
  (fp_line (start 0 -1.524) (end 2.54 -1.524) (layer F.SilkS) (width 0.2))
  (fp_line (start 0 -1.524) (end 0 -4.064) (layer F.SilkS) (width 0.2))
  (fp_line (start 20.32 -1.524) (end 20.32 -4.064) (layer F.SilkS) (width 0.2))
  (fp_line (start 20.32 -1.524) (end 22.86 -1.524) (layer F.SilkS) (width 0.2))
  (fp_line (start 22.86 -1.524) (end 22.86 -4.064) (layer F.SilkS) (width 0.2))
  (fp_line (start 21.336 -4.064) (end 21.336 -10.16) (layer F.SilkS) (width 0.2))
  (fp_line (start 21.336 -10.16) (end 21.844 -10.16) (layer F.SilkS) (width 0.2))
  (fp_line (start 21.844 -10.16) (end 21.844 -4.064) (layer F.SilkS) (width 0.2))
  (fp_line (start 22.86 -4.064) (end 20.32 -4.064) (layer F.SilkS) (width 0.2))
  (fp_line (start 25.4 -4.064) (end 22.86 -4.064) (layer F.SilkS) (width 0.2))
  (fp_line (start 24.384 -10.16) (end 24.384 -4.064) (layer F.SilkS) (width 0.2))
  (fp_line (start 23.876 -10.16) (end 24.384 -10.16) (layer F.SilkS) (width 0.2))
  (fp_line (start 23.876 -4.064) (end 23.876 -10.16) (layer F.SilkS) (width 0.2))
  (fp_line (start 25.4 -1.524) (end 25.4 -4.064) (layer F.SilkS) (width 0.2))
  (fp_line (start 22.86 -1.524) (end 25.4 -1.524) (layer F.SilkS) (width 0.2))
  (fp_line (start 22.86 -1.524) (end 22.86 -4.064) (layer F.SilkS) (width 0.2))
  (fp_line (start 27.94 -1.524) (end 27.94 -4.064) (layer F.SilkS) (width 0.2))
  (fp_line (start 27.94 -1.524) (end 30.48 -1.524) (layer F.SilkS) (width 0.2))
  (fp_line (start 30.48 -1.524) (end 30.48 -4.064) (layer F.SilkS) (width 0.2))
  (fp_line (start 28.956 -4.064) (end 28.956 -10.16) (layer F.SilkS) (width 0.2))
  (fp_line (start 28.956 -10.16) (end 29.464 -10.16) (layer F.SilkS) (width 0.2))
  (fp_line (start 29.464 -10.16) (end 29.464 -4.064) (layer F.SilkS) (width 0.2))
  (fp_line (start 30.48 -4.064) (end 27.94 -4.064) (layer F.SilkS) (width 0.2))
  (fp_line (start 27.94 -4.064) (end 25.4 -4.064) (layer F.SilkS) (width 0.2))
  (fp_line (start 26.924 -10.16) (end 26.924 -4.064) (layer F.SilkS) (width 0.2))
  (fp_line (start 26.416 -10.16) (end 26.924 -10.16) (layer F.SilkS) (width 0.2))
  (fp_line (start 26.416 -4.064) (end 26.416 -10.16) (layer F.SilkS) (width 0.2))
  (fp_line (start 27.94 -1.524) (end 27.94 -4.064) (layer F.SilkS) (width 0.2))
  (fp_line (start 25.4 -1.524) (end 27.94 -1.524) (layer F.SilkS) (width 0.2))
  (fp_line (start 25.4 -1.524) (end 25.4 -4.064) (layer F.SilkS) (width 0.2))
  (fp_line (start 15.24 -1.524) (end 15.24 -4.064) (layer F.SilkS) (width 0.2))
  (fp_line (start 15.24 -1.524) (end 17.78 -1.524) (layer F.SilkS) (width 0.2))
  (fp_line (start 17.78 -1.524) (end 17.78 -4.064) (layer F.SilkS) (width 0.2))
  (fp_line (start 16.256 -4.064) (end 16.256 -10.16) (layer F.SilkS) (width 0.2))
  (fp_line (start 16.256 -10.16) (end 16.764 -10.16) (layer F.SilkS) (width 0.2))
  (fp_line (start 16.764 -10.16) (end 16.764 -4.064) (layer F.SilkS) (width 0.2))
  (fp_line (start 17.78 -4.064) (end 15.24 -4.064) (layer F.SilkS) (width 0.2))
  (fp_line (start 20.32 -4.064) (end 17.78 -4.064) (layer F.SilkS) (width 0.2))
  (fp_line (start 19.304 -10.16) (end 19.304 -4.064) (layer F.SilkS) (width 0.2))
  (fp_line (start 18.796 -10.16) (end 19.304 -10.16) (layer F.SilkS) (width 0.2))
  (fp_line (start 18.796 -4.064) (end 18.796 -10.16) (layer F.SilkS) (width 0.2))
  (fp_line (start 20.32 -1.524) (end 20.32 -4.064) (layer F.SilkS) (width 0.2))
  (fp_line (start 17.78 -1.524) (end 20.32 -1.524) (layer F.SilkS) (width 0.2))
  (fp_line (start 17.78 -1.524) (end 17.78 -4.064) (layer F.SilkS) (width 0.2))
  (fp_line (start 12.7 -1.524) (end 12.7 -4.064) (layer F.SilkS) (width 0.2))
  (fp_line (start 12.7 -1.524) (end 15.24 -1.524) (layer F.SilkS) (width 0.2))
  (fp_line (start 15.24 -1.524) (end 15.24 -4.064) (layer F.SilkS) (width 0.2))
  (fp_line (start 13.716 -4.064) (end 13.716 -10.16) (layer F.SilkS) (width 0.2))
  (fp_line (start 13.716 -10.16) (end 14.224 -10.16) (layer F.SilkS) (width 0.2))
  (fp_line (start 14.224 -10.16) (end 14.224 -4.064) (layer F.SilkS) (width 0.2))
  (fp_line (start 15.24 -4.064) (end 12.7 -4.064) (layer F.SilkS) (width 0.2))
  (fp_line (start 12.7 -4.064) (end 10.16 -4.064) (layer F.SilkS) (width 0.2))
  (fp_line (start 11.684 -10.16) (end 11.684 -4.064) (layer F.SilkS) (width 0.2))
  (fp_line (start 11.176 -10.16) (end 11.684 -10.16) (layer F.SilkS) (width 0.2))
  (fp_line (start 11.176 -4.064) (end 11.176 -10.16) (layer F.SilkS) (width 0.2))
  (fp_line (start 12.7 -1.524) (end 12.7 -4.064) (layer F.SilkS) (width 0.2))
  (fp_line (start 10.16 -1.524) (end 12.7 -1.524) (layer F.SilkS) (width 0.2))
  (fp_line (start 10.16 -1.524) (end 10.16 -4.064) (layer F.SilkS) (width 0.2))
  (fp_line (start -30.48 -1.524) (end -30.48 -4.064) (layer F.SilkS) (width 0.2))
  (fp_line (start -30.48 -1.524) (end -27.94 -1.524) (layer F.SilkS) (width 0.2))
  (fp_line (start -27.94 -1.524) (end -27.94 -4.064) (layer F.SilkS) (width 0.2))
  (fp_line (start -29.464 -4.064) (end -29.464 -10.16) (layer F.SilkS) (width 0.2))
  (fp_line (start -29.464 -10.16) (end -28.956 -10.16) (layer F.SilkS) (width 0.2))
  (fp_line (start -28.956 -10.16) (end -28.956 -4.064) (layer F.SilkS) (width 0.2))
  (fp_line (start -27.94 -4.064) (end -30.48 -4.064) (layer F.SilkS) (width 0.2))
  (fp_line (start -25.4 -4.064) (end -27.94 -4.064) (layer F.SilkS) (width 0.2))
  (fp_line (start -26.416 -10.16) (end -26.416 -4.064) (layer F.SilkS) (width 0.2))
  (fp_line (start -26.924 -10.16) (end -26.416 -10.16) (layer F.SilkS) (width 0.2))
  (fp_line (start -26.924 -4.064) (end -26.924 -10.16) (layer F.SilkS) (width 0.2))
  (fp_line (start -25.4 -1.524) (end -25.4 -4.064) (layer F.SilkS) (width 0.2))
  (fp_line (start -27.94 -1.524) (end -25.4 -1.524) (layer F.SilkS) (width 0.2))
  (fp_line (start -27.94 -1.524) (end -27.94 -4.064) (layer F.SilkS) (width 0.2))
  (fp_line (start -22.86 -1.524) (end -22.86 -4.064) (layer F.SilkS) (width 0.2))
  (fp_line (start -22.86 -1.524) (end -20.32 -1.524) (layer F.SilkS) (width 0.2))
  (fp_line (start -20.32 -1.524) (end -20.32 -4.064) (layer F.SilkS) (width 0.2))
  (fp_line (start -21.844 -4.064) (end -21.844 -10.16) (layer F.SilkS) (width 0.2))
  (fp_line (start -21.844 -10.16) (end -21.336 -10.16) (layer F.SilkS) (width 0.2))
  (fp_line (start -21.336 -10.16) (end -21.336 -4.064) (layer F.SilkS) (width 0.2))
  (fp_line (start -20.32 -4.064) (end -22.86 -4.064) (layer F.SilkS) (width 0.2))
  (fp_line (start -22.86 -4.064) (end -25.4 -4.064) (layer F.SilkS) (width 0.2))
  (fp_line (start -23.876 -10.16) (end -23.876 -4.064) (layer F.SilkS) (width 0.2))
  (fp_line (start -24.384 -10.16) (end -23.876 -10.16) (layer F.SilkS) (width 0.2))
  (fp_line (start -24.384 -4.064) (end -24.384 -10.16) (layer F.SilkS) (width 0.2))
  (fp_line (start -22.86 -1.524) (end -22.86 -4.064) (layer F.SilkS) (width 0.2))
  (fp_line (start -25.4 -1.524) (end -22.86 -1.524) (layer F.SilkS) (width 0.2))
  (fp_line (start -25.4 -1.524) (end -25.4 -4.064) (layer F.SilkS) (width 0.2))
  (fp_line (start -15.24 -1.524) (end -15.24 -4.064) (layer F.SilkS) (width 0.2))
  (fp_line (start -15.24 -1.524) (end -12.7 -1.524) (layer F.SilkS) (width 0.2))
  (fp_line (start -12.7 -1.524) (end -12.7 -4.064) (layer F.SilkS) (width 0.2))
  (fp_line (start -14.224 -4.064) (end -14.224 -10.16) (layer F.SilkS) (width 0.2))
  (fp_line (start -14.224 -10.16) (end -13.716 -10.16) (layer F.SilkS) (width 0.2))
  (fp_line (start -13.716 -10.16) (end -13.716 -4.064) (layer F.SilkS) (width 0.2))
  (fp_line (start -12.7 -4.064) (end -15.24 -4.064) (layer F.SilkS) (width 0.2))
  (fp_line (start -10.16 -4.064) (end -12.7 -4.064) (layer F.SilkS) (width 0.2))
  (fp_line (start -11.176 -10.16) (end -11.176 -4.064) (layer F.SilkS) (width 0.2))
  (fp_line (start -11.684 -10.16) (end -11.176 -10.16) (layer F.SilkS) (width 0.2))
  (fp_line (start -11.684 -4.064) (end -11.684 -10.16) (layer F.SilkS) (width 0.2))
  (fp_line (start -10.16 -1.524) (end -10.16 -4.064) (layer F.SilkS) (width 0.2))
  (fp_line (start -12.7 -1.524) (end -10.16 -1.524) (layer F.SilkS) (width 0.2))
  (fp_line (start -12.7 -1.524) (end -12.7 -4.064) (layer F.SilkS) (width 0.2))
  (fp_line (start -17.78 -1.524) (end -17.78 -4.064) (layer F.SilkS) (width 0.2))
  (fp_line (start -17.78 -1.524) (end -15.24 -1.524) (layer F.SilkS) (width 0.2))
  (fp_line (start -15.24 -1.524) (end -15.24 -4.064) (layer F.SilkS) (width 0.2))
  (fp_line (start -16.764 -4.064) (end -16.764 -10.16) (layer F.SilkS) (width 0.2))
  (fp_line (start -16.764 -10.16) (end -16.256 -10.16) (layer F.SilkS) (width 0.2))
  (fp_line (start -16.256 -10.16) (end -16.256 -4.064) (layer F.SilkS) (width 0.2))
  (fp_line (start -15.24 -4.064) (end -17.78 -4.064) (layer F.SilkS) (width 0.2))
  (fp_line (start -17.78 -4.064) (end -20.32 -4.064) (layer F.SilkS) (width 0.2))
  (fp_line (start -18.796 -10.16) (end -18.796 -4.064) (layer F.SilkS) (width 0.2))
  (fp_line (start -19.304 -10.16) (end -18.796 -10.16) (layer F.SilkS) (width 0.2))
  (fp_line (start -19.304 -4.064) (end -19.304 -10.16) (layer F.SilkS) (width 0.2))
  (fp_line (start -17.78 -1.524) (end -17.78 -4.064) (layer F.SilkS) (width 0.2))
  (fp_line (start -20.32 -1.524) (end -17.78 -1.524) (layer F.SilkS) (width 0.2))
  (fp_line (start -20.32 -1.524) (end -20.32 -4.064) (layer F.SilkS) (width 0.2))
  (fp_line (start -33.02 -1.524) (end -30.48 -1.524) (layer F.SilkS) (width 0.2))
  (fp_line (start -30.48 -1.524) (end -30.48 -4.064) (layer F.SilkS) (width 0.2))
  (fp_line (start -32.004 -4.064) (end -32.004 -10.16) (layer F.SilkS) (width 0.2))
  (fp_line (start -32.004 -10.16) (end -31.496 -10.16) (layer F.SilkS) (width 0.2))
  (fp_line (start -31.496 -10.16) (end -31.496 -4.064) (layer F.SilkS) (width 0.2))
  (fp_line (start -30.48 -4.064) (end -33.02 -4.064) (layer F.SilkS) (width 0.2))
  (fp_line (start -33.02 -1.524) (end -33.02 -4.064) (layer F.SilkS) (width 0.2))
  (pad 1 thru_hole rect (at -31.75 0) (size 1.7272 2.032) (drill 1.0) (layers *.Cu *.Mask F.SilkS))
  (pad 2 thru_hole oval (at -29.21 0) (size 1.7272 2.032) (drill 1.0) (layers *.Cu *.Mask F.SilkS))
  (pad 3 thru_hole oval (at -26.67 0) (size 1.7272 2.032) (drill 1.0) (layers *.Cu *.Mask F.SilkS))
  (pad 4 thru_hole oval (at -24.13 0) (size 1.7272 2.032) (drill 1.0) (layers *.Cu *.Mask F.SilkS))
  (pad 5 thru_hole oval (at -21.59 0) (size 1.7272 2.032) (drill 1.0) (layers *.Cu *.Mask F.SilkS))
  (pad 6 thru_hole oval (at -19.05 0) (size 1.7272 2.032) (drill 1.0) (layers *.Cu *.Mask F.SilkS))
  (pad 7 thru_hole oval (at -16.51 0) (size 1.7272 2.032) (drill 1.0) (layers *.Cu *.Mask F.SilkS))
  (pad 8 thru_hole oval (at -13.97 0) (size 1.7272 2.032) (drill 1.0) (layers *.Cu *.Mask F.SilkS))
  (pad 9 thru_hole oval (at -11.43 0) (size 1.7272 2.032) (drill 1.0) (layers *.Cu *.Mask F.SilkS))
  (pad 10 thru_hole oval (at -8.89 0) (size 1.7272 2.032) (drill 1.0) (layers *.Cu *.Mask F.SilkS))
  (pad 11 thru_hole oval (at -6.35 0) (size 1.7272 2.032) (drill 1.0) (layers *.Cu *.Mask F.SilkS))
  (pad 12 thru_hole oval (at -3.81 0) (size 1.7272 2.032) (drill 1.0) (layers *.Cu *.Mask F.SilkS))
  (pad 13 thru_hole oval (at -1.27 0) (size 1.7272 2.032) (drill 1.0) (layers *.Cu *.Mask F.SilkS))
  (pad 14 thru_hole oval (at 1.27 0) (size 1.7272 2.032) (drill 1.0) (layers *.Cu *.Mask F.SilkS))
  (pad 15 thru_hole oval (at 3.81 0) (size 1.7272 2.032) (drill 1.0) (layers *.Cu *.Mask F.SilkS))
  (pad 16 thru_hole oval (at 6.35 0) (size 1.7272 2.032) (drill 1.0) (layers *.Cu *.Mask F.SilkS))
  (pad 17 thru_hole oval (at 8.89 0) (size 1.7272 2.032) (drill 1.0) (layers *.Cu *.Mask F.SilkS))
  (pad 18 thru_hole oval (at 11.43 0) (size 1.7272 2.032) (drill 1.0) (layers *.Cu *.Mask F.SilkS))
  (pad 19 thru_hole oval (at 13.97 0) (size 1.7272 2.032) (drill 1.0) (layers *.Cu *.Mask F.SilkS))
  (pad 20 thru_hole oval (at 16.51 0) (size 1.7272 2.032) (drill 1.0) (layers *.Cu *.Mask F.SilkS))
  (pad 21 thru_hole oval (at 19.05 0) (size 1.7272 2.032) (drill 1.0) (layers *.Cu *.Mask F.SilkS))
  (pad 22 thru_hole oval (at 21.59 0) (size 1.7272 2.032) (drill 1.0) (layers *.Cu *.Mask F.SilkS))
  (pad 23 thru_hole oval (at 24.13 0) (size 1.7272 2.032) (drill 1.0) (layers *.Cu *.Mask F.SilkS))
  (pad 24 thru_hole oval (at 26.67 0) (size 1.7272 2.032) (drill 1.0) (layers *.Cu *.Mask F.SilkS))
  (pad 25 thru_hole oval (at 29.21 0) (size 1.7272 2.032) (drill 1.0) (layers *.Cu *.Mask F.SilkS))
  (pad 26 thru_hole oval (at 31.75 0) (size 1.7272 2.032) (drill 1.0) (layers *.Cu *.Mask F.SilkS))
  (model Pin_Headers/Pin_Header_Angled_1x26.wrl
    (at (xyz 0 0 0))
    (scale (xyz 1 1 1))
    (rotate (xyz 0 0 0))
  )
)
