(module BS_HEADER_S_2X29 (layer F.Cu)
  (descr "1 pin")
  (tags "CONN DEV")
  (fp_text reference BS_HEADER_S_2X29 (at 0 -3.81) (layer F.SilkS)
    (effects (font (size 1.0 1.0) (thickness 0.1778)))
  )
  (fp_text value Val** (at 0 0) (layer F.SilkS) hide
    (effects (font (size 1.0 1.0) (thickness 0.1778)))
  )
  (fp_line (start 36.83 -2.54) (end -36.83 -2.54) (layer F.SilkS) (width 0.2))
  (fp_line (start -34.29 2.54) (end 36.83 2.54) (layer F.SilkS) (width 0.2))
  (fp_line (start 36.83 -2.54) (end 36.83 2.54) (layer F.SilkS) (width 0.2))
  (fp_line (start -36.83 -2.54) (end -36.83 0) (layer F.SilkS) (width 0.2))
  (fp_line (start -36.83 2.54) (end -34.29 2.54) (layer F.SilkS) (width 0.2))
  (fp_line (start -36.83 0) (end -34.29 0) (layer F.SilkS) (width 0.2))
  (fp_line (start -34.29 0) (end -34.29 2.54) (layer F.SilkS) (width 0.2))
  (fp_line (start -36.83 2.54) (end -36.83 0) (layer F.SilkS) (width 0.2))
  (pad  1 thru_hole rect (at -35.56 1.27) (size 1.8288 1.8288) (drill 1.0) (layers *.Cu *.Mask F.SilkS))
  (pad  3 thru_hole oval (at -33.02 1.27) (size 1.8288 1.8288) (drill 1.0) (layers *.Cu *.Mask F.SilkS))
  (pad  5 thru_hole oval (at -30.48 1.27) (size 1.8288 1.8288) (drill 1.0) (layers *.Cu *.Mask F.SilkS))
  (pad  7 thru_hole oval (at -27.94 1.27) (size 1.8288 1.8288) (drill 1.0) (layers *.Cu *.Mask F.SilkS))
  (pad  9 thru_hole oval (at -25.4 1.27) (size 1.8288 1.8288) (drill 1.0) (layers *.Cu *.Mask F.SilkS))
  (pad 11 thru_hole oval (at -22.86 1.27) (size 1.8288 1.8288) (drill 1.0) (layers *.Cu *.Mask F.SilkS))
  (pad 13 thru_hole oval (at -20.32 1.27) (size 1.8288 1.8288) (drill 1.0) (layers *.Cu *.Mask F.SilkS))
  (pad 15 thru_hole oval (at -17.78 1.27) (size 1.8288 1.8288) (drill 1.0) (layers *.Cu *.Mask F.SilkS))
  (pad 17 thru_hole oval (at -15.24 1.27) (size 1.8288 1.8288) (drill 1.0) (layers *.Cu *.Mask F.SilkS))
  (pad 19 thru_hole oval (at -12.7 1.27) (size 1.8288 1.8288) (drill 1.0) (layers *.Cu *.Mask F.SilkS))
  (pad 21 thru_hole oval (at -10.16 1.27) (size 1.8288 1.8288) (drill 1.0) (layers *.Cu *.Mask F.SilkS))
  (pad 23 thru_hole oval (at -7.62 1.27) (size 1.8288 1.8288) (drill 1.0) (layers *.Cu *.Mask F.SilkS))
  (pad 25 thru_hole oval (at -5.08 1.27) (size 1.8288 1.8288) (drill 1.0) (layers *.Cu *.Mask F.SilkS))
  (pad 27 thru_hole oval (at -2.54 1.27) (size 1.8288 1.8288) (drill 1.0) (layers *.Cu *.Mask F.SilkS))
  (pad 29 thru_hole oval (at 0 1.27) (size 1.8288 1.8288) (drill 1.0) (layers *.Cu *.Mask F.SilkS))
  (pad 31 thru_hole oval (at 2.54 1.27) (size 1.8288 1.8288) (drill 1.0) (layers *.Cu *.Mask F.SilkS))
  (pad 33 thru_hole oval (at 5.08 1.27) (size 1.8288 1.8288) (drill 1.0) (layers *.Cu *.Mask F.SilkS))
  (pad 35 thru_hole oval (at 7.62 1.27) (size 1.8288 1.8288) (drill 1.0) (layers *.Cu *.Mask F.SilkS))
  (pad 37 thru_hole oval (at 10.16 1.27) (size 1.8288 1.8288) (drill 1.0) (layers *.Cu *.Mask F.SilkS))
  (pad 39 thru_hole oval (at 12.7 1.27) (size 1.8288 1.8288) (drill 1.0) (layers *.Cu *.Mask F.SilkS))
  (pad 41 thru_hole oval (at 15.24 1.27) (size 1.8288 1.8288) (drill 1.0) (layers *.Cu *.Mask F.SilkS))
  (pad 43 thru_hole oval (at 17.78 1.27) (size 1.8288 1.8288) (drill 1.0) (layers *.Cu *.Mask F.SilkS))
  (pad 45 thru_hole oval (at 20.32 1.27) (size 1.8288 1.8288) (drill 1.0) (layers *.Cu *.Mask F.SilkS))
  (pad 47 thru_hole oval (at 22.86 1.27) (size 1.8288 1.8288) (drill 1.0) (layers *.Cu *.Mask F.SilkS))
  (pad 49 thru_hole oval (at 25.4 1.27) (size 1.8288 1.8288) (drill 1.0) (layers *.Cu *.Mask F.SilkS))
  (pad 51 thru_hole oval (at 27.94 1.27) (size 1.8288 1.8288) (drill 1.0) (layers *.Cu *.Mask F.SilkS))
  (pad 53 thru_hole oval (at 30.48 1.27) (size 1.8288 1.8288) (drill 1.0) (layers *.Cu *.Mask F.SilkS))
  (pad 55 thru_hole oval (at 33.02 1.27) (size 1.8288 1.8288) (drill 1.0) (layers *.Cu *.Mask F.SilkS))
  (pad 57 thru_hole oval (at 35.56 1.27) (size 1.8288 1.8288) (drill 1.0) (layers *.Cu *.Mask F.SilkS))
  (pad 58 thru_hole oval (at 35.56 -1.27) (size 1.8288 1.8288) (drill 1.0) (layers *.Cu *.Mask F.SilkS))
  (pad 56 thru_hole oval (at 33.02 -1.27) (size 1.8288 1.8288) (drill 1.0) (layers *.Cu *.Mask F.SilkS))
  (pad 54 thru_hole oval (at 30.48 -1.27) (size 1.8288 1.8288) (drill 1.0) (layers *.Cu *.Mask F.SilkS))
  (pad 52 thru_hole oval (at 27.94 -1.27) (size 1.8288 1.8288) (drill 1.0) (layers *.Cu *.Mask F.SilkS))
  (pad 50 thru_hole oval (at 25.4 -1.27) (size 1.8288 1.8288) (drill 1.0) (layers *.Cu *.Mask F.SilkS))
  (pad 48 thru_hole oval (at 22.86 -1.27) (size 1.8288 1.8288) (drill 1.0) (layers *.Cu *.Mask F.SilkS))
  (pad 46 thru_hole oval (at 20.32 -1.27) (size 1.8288 1.8288) (drill 1.0) (layers *.Cu *.Mask F.SilkS))
  (pad 44 thru_hole oval (at 17.78 -1.27) (size 1.8288 1.8288) (drill 1.0) (layers *.Cu *.Mask F.SilkS))
  (pad 42 thru_hole oval (at 15.24 -1.27) (size 1.8288 1.8288) (drill 1.0) (layers *.Cu *.Mask F.SilkS))
  (pad 40 thru_hole oval (at 12.7 -1.27) (size 1.8288 1.8288) (drill 1.0) (layers *.Cu *.Mask F.SilkS))
  (pad 38 thru_hole oval (at 10.16 -1.27) (size 1.8288 1.8288) (drill 1.0) (layers *.Cu *.Mask F.SilkS))
  (pad 36 thru_hole oval (at 7.62 -1.27) (size 1.8288 1.8288) (drill 1.0) (layers *.Cu *.Mask F.SilkS))
  (pad 34 thru_hole oval (at 5.08 -1.27) (size 1.8288 1.8288) (drill 1.0) (layers *.Cu *.Mask F.SilkS))
  (pad 32 thru_hole oval (at 2.54 -1.27) (size 1.8288 1.8288) (drill 1.0) (layers *.Cu *.Mask F.SilkS))
  (pad 30 thru_hole oval (at 0 -1.27) (size 1.8288 1.8288) (drill 1.0) (layers *.Cu *.Mask F.SilkS))
  (pad 28 thru_hole oval (at -2.54 -1.27) (size 1.8288 1.8288) (drill 1.0) (layers *.Cu *.Mask F.SilkS))
  (pad 26 thru_hole oval (at -5.08 -1.27) (size 1.8288 1.8288) (drill 1.0) (layers *.Cu *.Mask F.SilkS))
  (pad 24 thru_hole oval (at -7.62 -1.27) (size 1.8288 1.8288) (drill 1.0) (layers *.Cu *.Mask F.SilkS))
  (pad 22 thru_hole oval (at -10.16 -1.27) (size 1.8288 1.8288) (drill 1.0) (layers *.Cu *.Mask F.SilkS))
  (pad 20 thru_hole oval (at -12.7 -1.27) (size 1.8288 1.8288) (drill 1.0) (layers *.Cu *.Mask F.SilkS))
  (pad 18 thru_hole oval (at -15.24 -1.27) (size 1.8288 1.8288) (drill 1.0) (layers *.Cu *.Mask F.SilkS))
  (pad 16 thru_hole oval (at -17.78 -1.27) (size 1.8288 1.8288) (drill 1.0) (layers *.Cu *.Mask F.SilkS))
  (pad 14 thru_hole oval (at -20.32 -1.27) (size 1.8288 1.8288) (drill 1.0) (layers *.Cu *.Mask F.SilkS))
  (pad 12 thru_hole oval (at -22.86 -1.27) (size 1.8288 1.8288) (drill 1.0) (layers *.Cu *.Mask F.SilkS))
  (pad 10 thru_hole oval (at -25.4 -1.27) (size 1.8288 1.8288) (drill 1.0) (layers *.Cu *.Mask F.SilkS))
  (pad  8 thru_hole oval (at -27.94 -1.27) (size 1.8288 1.8288) (drill 1.0) (layers *.Cu *.Mask F.SilkS))
  (pad  6 thru_hole oval (at -30.48 -1.27) (size 1.8288 1.8288) (drill 1.0) (layers *.Cu *.Mask F.SilkS))
  (pad  4 thru_hole oval (at -33.02 -1.27) (size 1.8288 1.8288) (drill 1.0) (layers *.Cu *.Mask F.SilkS))
  (pad  2 thru_hole oval (at -35.56 -1.27) (size 1.8288 1.8288) (drill 1.0) (layers *.Cu *.Mask F.SilkS))
  (model Pin_Headers/Pin_Header_Straight_2x29.wrl
    (at (xyz 0 0 0))
    (scale (xyz 1 1 1))
    (rotate (xyz 0 0 0))
  )
)
