(module BS_HEADER_A_2X27 (layer F.Cu)
  (descr "1 pin")
  (tags "CONN DEV")
  (fp_text reference BS_HEADER_A_2X27 (at 0 3.81) (layer F.SilkS)
    (effects (font (size 1 1) (thickness 0.1778)))
  )
  (fp_text value Val** (at 0 0) (layer F.SilkS) hide
    (effects (font (size 1 1) (thickness 0.1778)))
  )
  (fp_line (start -30.226 -0.0762) (end -30.226 0.0508) (layer F.SilkS) (width 0.2))
  (fp_line (start -30.734 -0.0762) (end -30.734 0.0508) (layer F.SilkS) (width 0.2))
  (fp_line (start -32.766 -0.0762) (end -32.766 0.0508) (layer F.SilkS) (width 0.2))
  (fp_line (start -33.274 -0.0762) (end -33.274 0.0508) (layer F.SilkS) (width 0.2))
  (fp_line (start -12.954 -0.0762) (end -12.954 0.0508) (layer F.SilkS) (width 0.2))
  (fp_line (start -12.446 -0.0762) (end -12.446 0.0508) (layer F.SilkS) (width 0.2))
  (fp_line (start -10.414 -0.0762) (end -10.414 0.0508) (layer F.SilkS) (width 0.2))
  (fp_line (start -9.906 -0.0762) (end -9.906 0.0508) (layer F.SilkS) (width 0.2))
  (fp_line (start -14.986 -0.0762) (end -14.986 0.0508) (layer F.SilkS) (width 0.2))
  (fp_line (start -15.494 -0.0762) (end -15.494 0.0508) (layer F.SilkS) (width 0.2))
  (fp_line (start -17.526 -0.0762) (end -17.526 0.0508) (layer F.SilkS) (width 0.2))
  (fp_line (start -18.034 -0.0762) (end -18.034 0.0508) (layer F.SilkS) (width 0.2))
  (fp_line (start -28.194 -0.0762) (end -28.194 0.0508) (layer F.SilkS) (width 0.2))
  (fp_line (start -27.686 -0.0762) (end -27.686 0.0508) (layer F.SilkS) (width 0.2))
  (fp_line (start -25.654 -0.0762) (end -25.654 0.0508) (layer F.SilkS) (width 0.2))
  (fp_line (start -25.146 -0.0762) (end -25.146 0.0508) (layer F.SilkS) (width 0.2))
  (fp_line (start -20.066 -0.0762) (end -20.066 0.0508) (layer F.SilkS) (width 0.2))
  (fp_line (start -20.574 -0.0762) (end -20.574 0.0508) (layer F.SilkS) (width 0.2))
  (fp_line (start -22.606 -0.0762) (end -22.606 0.0508) (layer F.SilkS) (width 0.2))
  (fp_line (start -23.114 -0.0762) (end -23.114 0.0508) (layer F.SilkS) (width 0.2))
  (fp_line (start 17.526 -0.0762) (end 17.526 0.0508) (layer F.SilkS) (width 0.2))
  (fp_line (start 18.034 -0.0762) (end 18.034 0.0508) (layer F.SilkS) (width 0.2))
  (fp_line (start 20.066 -0.0762) (end 20.066 0.0508) (layer F.SilkS) (width 0.2))
  (fp_line (start 20.574 -0.0762) (end 20.574 0.0508) (layer F.SilkS) (width 0.2))
  (fp_line (start 15.494 -0.0762) (end 15.494 0.0508) (layer F.SilkS) (width 0.2))
  (fp_line (start 14.986 -0.0762) (end 14.986 0.0508) (layer F.SilkS) (width 0.2))
  (fp_line (start 12.954 -0.0762) (end 12.954 0.0508) (layer F.SilkS) (width 0.2))
  (fp_line (start 12.446 -0.0762) (end 12.446 0.0508) (layer F.SilkS) (width 0.2))
  (fp_line (start 22.606 -0.0762) (end 22.606 0.0508) (layer F.SilkS) (width 0.2))
  (fp_line (start 23.114 -0.0762) (end 23.114 0.0508) (layer F.SilkS) (width 0.2))
  (fp_line (start 25.146 -0.0762) (end 25.146 0.0508) (layer F.SilkS) (width 0.2))
  (fp_line (start 25.654 -0.0762) (end 25.654 0.0508) (layer F.SilkS) (width 0.2))
  (fp_line (start 30.734 -0.0762) (end 30.734 0.0508) (layer F.SilkS) (width 0.2))
  (fp_line (start 30.226 -0.0762) (end 30.226 0.0508) (layer F.SilkS) (width 0.2))
  (fp_line (start 28.194 -0.0762) (end 28.194 0.0508) (layer F.SilkS) (width 0.2))
  (fp_line (start 27.686 -0.0762) (end 27.686 0.0508) (layer F.SilkS) (width 0.2))
  (fp_line (start 7.366 -0.0762) (end 7.366 0.0508) (layer F.SilkS) (width 0.2))
  (fp_line (start 7.874 -0.0762) (end 7.874 0.0508) (layer F.SilkS) (width 0.2))
  (fp_line (start 9.906 -0.0762) (end 9.906 0.0508) (layer F.SilkS) (width 0.2))
  (fp_line (start 10.414 -0.0762) (end 10.414 0.0508) (layer F.SilkS) (width 0.2))
  (fp_line (start 5.334 -0.0762) (end 5.334 0.0508) (layer F.SilkS) (width 0.2))
  (fp_line (start 4.826 -0.0762) (end 4.826 0.0508) (layer F.SilkS) (width 0.2))
  (fp_line (start 2.794 -0.0762) (end 2.794 0.0508) (layer F.SilkS) (width 0.2))
  (fp_line (start 2.286 -0.0762) (end 2.286 0.0508) (layer F.SilkS) (width 0.2))
  (fp_line (start -7.874 -0.0762) (end -7.874 0.0508) (layer F.SilkS) (width 0.2))
  (fp_line (start -7.366 -0.0762) (end -7.366 0.0508) (layer F.SilkS) (width 0.2))
  (fp_line (start -5.334 -0.0762) (end -5.334 0.0508) (layer F.SilkS) (width 0.2))
  (fp_line (start -4.826 -0.0762) (end -4.826 0.0508) (layer F.SilkS) (width 0.2))
  (fp_line (start 0.254 -0.0762) (end 0.254 0.0508) (layer F.SilkS) (width 0.2))
  (fp_line (start -0.254 -0.0762) (end -0.254 0.0508) (layer F.SilkS) (width 0.2))
  (fp_line (start -2.286 -0.0762) (end -2.286 0.0508) (layer F.SilkS) (width 0.2))
  (fp_line (start -2.794 -0.0762) (end -2.794 0.0508) (layer F.SilkS) (width 0.2))
  (fp_line (start 32.766 -0.0762) (end 32.766 0.0508) (layer F.SilkS) (width 0.2))
  (fp_line (start 33.274 -0.0762) (end 33.274 0.0508) (layer F.SilkS) (width 0.2))
  (fp_line (start 12.446 -2.794) (end 12.446 -2.4368) (layer F.SilkS) (width 0.2))
  (fp_line (start 12.954 -2.794) (end 12.954 -2.4368) (layer F.SilkS) (width 0.2))
  (fp_line (start 14.986 -2.794) (end 14.986 -2.4368) (layer F.SilkS) (width 0.2))
  (fp_line (start 15.494 -2.794) (end 15.494 -2.4368) (layer F.SilkS) (width 0.2))
  (fp_line (start 10.414 -2.794) (end 10.414 -2.4368) (layer F.SilkS) (width 0.2))
  (fp_line (start 9.906 -2.794) (end 9.906 -2.4368) (layer F.SilkS) (width 0.2))
  (fp_line (start 7.874 -2.794) (end 7.874 -2.4368) (layer F.SilkS) (width 0.2))
  (fp_line (start 7.366 -2.794) (end 7.366 -2.4368) (layer F.SilkS) (width 0.2))
  (fp_line (start 17.526 -2.794) (end 17.526 -2.4368) (layer F.SilkS) (width 0.2))
  (fp_line (start 18.034 -2.794) (end 18.034 -2.4368) (layer F.SilkS) (width 0.2))
  (fp_line (start 20.066 -2.794) (end 20.066 -2.4368) (layer F.SilkS) (width 0.2))
  (fp_line (start 20.574 -2.794) (end 20.574 -2.4368) (layer F.SilkS) (width 0.2))
  (fp_line (start 25.654 -2.794) (end 25.654 -2.4368) (layer F.SilkS) (width 0.2))
  (fp_line (start 25.146 -2.794) (end 25.146 -2.4368) (layer F.SilkS) (width 0.2))
  (fp_line (start 23.114 -2.794) (end 23.114 -2.4368) (layer F.SilkS) (width 0.2))
  (fp_line (start 22.606 -2.794) (end 22.606 -2.4368) (layer F.SilkS) (width 0.2))
  (fp_line (start 27.686 -2.794) (end 27.686 -2.4368) (layer F.SilkS) (width 0.2))
  (fp_line (start 28.194 -2.794) (end 28.194 -2.4368) (layer F.SilkS) (width 0.2))
  (fp_line (start 30.226 -2.794) (end 30.226 -2.4368) (layer F.SilkS) (width 0.2))
  (fp_line (start 30.734 -2.794) (end 30.734 -2.4368) (layer F.SilkS) (width 0.2))
  (fp_line (start 33.274 -2.794) (end 33.274 -2.4368) (layer F.SilkS) (width 0.2))
  (fp_line (start 32.766 -2.794) (end 32.766 -2.4368) (layer F.SilkS) (width 0.2))
  (fp_line (start -7.874 -2.794) (end -7.874 -2.4368) (layer F.SilkS) (width 0.2))
  (fp_line (start -7.366 -2.794) (end -7.366 -2.4368) (layer F.SilkS) (width 0.2))
  (fp_line (start -5.334 -2.794) (end -5.334 -2.4368) (layer F.SilkS) (width 0.2))
  (fp_line (start -4.826 -2.794) (end -4.826 -2.4368) (layer F.SilkS) (width 0.2))
  (fp_line (start -9.906 -2.794) (end -9.906 -2.4368) (layer F.SilkS) (width 0.2))
  (fp_line (start -10.414 -2.794) (end -10.414 -2.4368) (layer F.SilkS) (width 0.2))
  (fp_line (start -12.446 -2.794) (end -12.446 -2.4368) (layer F.SilkS) (width 0.2))
  (fp_line (start -12.954 -2.794) (end -12.954 -2.4368) (layer F.SilkS) (width 0.2))
  (fp_line (start -2.794 -2.794) (end -2.794 -2.4368) (layer F.SilkS) (width 0.2))
  (fp_line (start -2.286 -2.794) (end -2.286 -2.4368) (layer F.SilkS) (width 0.2))
  (fp_line (start -0.254 -2.794) (end -0.254 -2.4368) (layer F.SilkS) (width 0.2))
  (fp_line (start 0.254 -2.794) (end 0.254 -2.4368) (layer F.SilkS) (width 0.2))
  (fp_line (start 5.334 -2.794) (end 5.334 -2.4368) (layer F.SilkS) (width 0.2))
  (fp_line (start 4.826 -2.794) (end 4.826 -2.4368) (layer F.SilkS) (width 0.2))
  (fp_line (start 2.794 -2.794) (end 2.794 -2.4368) (layer F.SilkS) (width 0.2))
  (fp_line (start 2.286 -2.794) (end 2.286 -2.4368) (layer F.SilkS) (width 0.2))
  (fp_line (start -18.034 -2.794) (end -18.034 -2.4368) (layer F.SilkS) (width 0.2))
  (fp_line (start -17.526 -2.794) (end -17.526 -2.4368) (layer F.SilkS) (width 0.2))
  (fp_line (start -15.494 -2.794) (end -15.494 -2.4368) (layer F.SilkS) (width 0.2))
  (fp_line (start -14.986 -2.794) (end -14.986 -2.4368) (layer F.SilkS) (width 0.2))
  (fp_line (start -20.066 -2.794) (end -20.066 -2.4368) (layer F.SilkS) (width 0.2))
  (fp_line (start -20.574 -2.794) (end -20.574 -2.4368) (layer F.SilkS) (width 0.2))
  (fp_line (start -22.606 -2.794) (end -22.606 -2.4368) (layer F.SilkS) (width 0.2))
  (fp_line (start -23.114 -2.794) (end -23.114 -2.4368) (layer F.SilkS) (width 0.2))
  (fp_line (start -33.274 -2.794) (end -33.274 -2.4368) (layer F.SilkS) (width 0.2))
  (fp_line (start -32.766 -2.794) (end -32.766 -2.4368) (layer F.SilkS) (width 0.2))
  (fp_line (start -30.734 -2.794) (end -30.734 -2.4368) (layer F.SilkS) (width 0.2))
  (fp_line (start -30.226 -2.794) (end -30.226 -2.4368) (layer F.SilkS) (width 0.2))
  (fp_line (start -25.146 -2.794) (end -25.146 -2.4368) (layer F.SilkS) (width 0.2))
  (fp_line (start -25.654 -2.794) (end -25.654 -2.4368) (layer F.SilkS) (width 0.2))
  (fp_line (start -27.686 -2.794) (end -27.686 -2.4368) (layer F.SilkS) (width 0.2))
  (fp_line (start -28.194 -2.794) (end -28.194 -2.4368) (layer F.SilkS) (width 0.2))
  (fp_line (start -34.29 -2.794) (end -31.75 -5.334) (layer F.SilkS) (width 0.2))
  (fp_line (start -34.29 -5.334) (end -31.75 -2.794) (layer F.SilkS) (width 0.2))
  (fp_line (start -33.147 -5.334) (end -33.147 -11.303) (layer F.SilkS) (width 0.2))
  (fp_line (start -33.147 -11.303) (end -32.893 -11.303) (layer F.SilkS) (width 0.2))
  (fp_line (start -32.893 -11.303) (end -32.893 -5.461) (layer F.SilkS) (width 0.2))
  (fp_line (start -32.893 -5.461) (end -33.02 -5.461) (layer F.SilkS) (width 0.2))
  (fp_line (start -33.02 -5.461) (end -33.02 -11.303) (layer F.SilkS) (width 0.2))
  (fp_line (start 6.35 -2.794) (end 6.35 -5.334) (layer F.SilkS) (width 0.2))
  (fp_line (start 6.35 -2.794) (end 8.89 -2.794) (layer F.SilkS) (width 0.2))
  (fp_line (start 8.89 -2.794) (end 8.89 -5.334) (layer F.SilkS) (width 0.2))
  (fp_line (start 7.366 -5.334) (end 7.366 -11.43) (layer F.SilkS) (width 0.2))
  (fp_line (start 7.366 -11.43) (end 7.874 -11.43) (layer F.SilkS) (width 0.2))
  (fp_line (start 7.874 -11.43) (end 7.874 -5.334) (layer F.SilkS) (width 0.2))
  (fp_line (start 8.89 -5.334) (end 6.35 -5.334) (layer F.SilkS) (width 0.2))
  (fp_line (start 11.43 -5.334) (end 8.89 -5.334) (layer F.SilkS) (width 0.2))
  (fp_line (start 10.414 -11.43) (end 10.414 -5.334) (layer F.SilkS) (width 0.2))
  (fp_line (start 9.906 -11.43) (end 10.414 -11.43) (layer F.SilkS) (width 0.2))
  (fp_line (start 9.906 -5.334) (end 9.906 -11.43) (layer F.SilkS) (width 0.2))
  (fp_line (start 11.43 -2.794) (end 11.43 -5.334) (layer F.SilkS) (width 0.2))
  (fp_line (start 8.89 -2.794) (end 11.43 -2.794) (layer F.SilkS) (width 0.2))
  (fp_line (start 8.89 -2.794) (end 8.89 -5.334) (layer F.SilkS) (width 0.2))
  (fp_line (start 13.97 -2.794) (end 13.97 -5.334) (layer F.SilkS) (width 0.2))
  (fp_line (start 13.97 -2.794) (end 16.51 -2.794) (layer F.SilkS) (width 0.2))
  (fp_line (start 16.51 -2.794) (end 16.51 -5.334) (layer F.SilkS) (width 0.2))
  (fp_line (start 14.986 -5.334) (end 14.986 -11.43) (layer F.SilkS) (width 0.2))
  (fp_line (start 14.986 -11.43) (end 15.494 -11.43) (layer F.SilkS) (width 0.2))
  (fp_line (start 15.494 -11.43) (end 15.494 -5.334) (layer F.SilkS) (width 0.2))
  (fp_line (start 16.51 -5.334) (end 13.97 -5.334) (layer F.SilkS) (width 0.2))
  (fp_line (start 13.97 -5.334) (end 11.43 -5.334) (layer F.SilkS) (width 0.2))
  (fp_line (start 12.954 -11.43) (end 12.954 -5.334) (layer F.SilkS) (width 0.2))
  (fp_line (start 12.446 -11.43) (end 12.954 -11.43) (layer F.SilkS) (width 0.2))
  (fp_line (start 12.446 -5.334) (end 12.446 -11.43) (layer F.SilkS) (width 0.2))
  (fp_line (start 13.97 -2.794) (end 13.97 -5.334) (layer F.SilkS) (width 0.2))
  (fp_line (start 11.43 -2.794) (end 13.97 -2.794) (layer F.SilkS) (width 0.2))
  (fp_line (start 11.43 -2.794) (end 11.43 -5.334) (layer F.SilkS) (width 0.2))
  (fp_line (start 21.59 -2.794) (end 21.59 -5.334) (layer F.SilkS) (width 0.2))
  (fp_line (start 21.59 -2.794) (end 24.13 -2.794) (layer F.SilkS) (width 0.2))
  (fp_line (start 24.13 -2.794) (end 24.13 -5.334) (layer F.SilkS) (width 0.2))
  (fp_line (start 22.606 -5.334) (end 22.606 -11.43) (layer F.SilkS) (width 0.2))
  (fp_line (start 22.606 -11.43) (end 23.114 -11.43) (layer F.SilkS) (width 0.2))
  (fp_line (start 23.114 -11.43) (end 23.114 -5.334) (layer F.SilkS) (width 0.2))
  (fp_line (start 24.13 -5.334) (end 21.59 -5.334) (layer F.SilkS) (width 0.2))
  (fp_line (start 26.67 -5.334) (end 24.13 -5.334) (layer F.SilkS) (width 0.2))
  (fp_line (start 25.654 -11.43) (end 25.654 -5.334) (layer F.SilkS) (width 0.2))
  (fp_line (start 25.146 -11.43) (end 25.654 -11.43) (layer F.SilkS) (width 0.2))
  (fp_line (start 25.146 -5.334) (end 25.146 -11.43) (layer F.SilkS) (width 0.2))
  (fp_line (start 26.67 -2.794) (end 26.67 -5.334) (layer F.SilkS) (width 0.2))
  (fp_line (start 24.13 -2.794) (end 26.67 -2.794) (layer F.SilkS) (width 0.2))
  (fp_line (start 24.13 -2.794) (end 24.13 -5.334) (layer F.SilkS) (width 0.2))
  (fp_line (start 19.05 -2.794) (end 19.05 -5.334) (layer F.SilkS) (width 0.2))
  (fp_line (start 19.05 -2.794) (end 21.59 -2.794) (layer F.SilkS) (width 0.2))
  (fp_line (start 21.59 -2.794) (end 21.59 -5.334) (layer F.SilkS) (width 0.2))
  (fp_line (start 20.066 -5.334) (end 20.066 -11.43) (layer F.SilkS) (width 0.2))
  (fp_line (start 20.066 -11.43) (end 20.574 -11.43) (layer F.SilkS) (width 0.2))
  (fp_line (start 20.574 -11.43) (end 20.574 -5.334) (layer F.SilkS) (width 0.2))
  (fp_line (start 21.59 -5.334) (end 19.05 -5.334) (layer F.SilkS) (width 0.2))
  (fp_line (start 19.05 -5.334) (end 16.51 -5.334) (layer F.SilkS) (width 0.2))
  (fp_line (start 18.034 -11.43) (end 18.034 -5.334) (layer F.SilkS) (width 0.2))
  (fp_line (start 17.526 -11.43) (end 18.034 -11.43) (layer F.SilkS) (width 0.2))
  (fp_line (start 17.526 -5.334) (end 17.526 -11.43) (layer F.SilkS) (width 0.2))
  (fp_line (start 19.05 -2.794) (end 19.05 -5.334) (layer F.SilkS) (width 0.2))
  (fp_line (start 16.51 -2.794) (end 19.05 -2.794) (layer F.SilkS) (width 0.2))
  (fp_line (start 16.51 -2.794) (end 16.51 -5.334) (layer F.SilkS) (width 0.2))
  (fp_line (start 31.75 -2.794) (end 31.75 -5.334) (layer F.SilkS) (width 0.2))
  (fp_line (start 31.75 -2.794) (end 34.29 -2.794) (layer F.SilkS) (width 0.2))
  (fp_line (start 32.766 -5.334) (end 32.766 -11.43) (layer F.SilkS) (width 0.2))
  (fp_line (start 32.766 -11.43) (end 33.274 -11.43) (layer F.SilkS) (width 0.2))
  (fp_line (start 33.274 -11.43) (end 33.274 -5.334) (layer F.SilkS) (width 0.2))
  (fp_line (start 34.29 -5.334) (end 31.75 -5.334) (layer F.SilkS) (width 0.2))
  (fp_line (start 34.29 -2.794) (end 34.29 -5.334) (layer F.SilkS) (width 0.2))
  (fp_line (start 29.21 -2.794) (end 29.21 -5.334) (layer F.SilkS) (width 0.2))
  (fp_line (start 29.21 -2.794) (end 31.75 -2.794) (layer F.SilkS) (width 0.2))
  (fp_line (start 31.75 -2.794) (end 31.75 -5.334) (layer F.SilkS) (width 0.2))
  (fp_line (start 30.226 -5.334) (end 30.226 -11.43) (layer F.SilkS) (width 0.2))
  (fp_line (start 30.226 -11.43) (end 30.734 -11.43) (layer F.SilkS) (width 0.2))
  (fp_line (start 30.734 -11.43) (end 30.734 -5.334) (layer F.SilkS) (width 0.2))
  (fp_line (start 31.75 -5.334) (end 29.21 -5.334) (layer F.SilkS) (width 0.2))
  (fp_line (start 29.21 -5.334) (end 26.67 -5.334) (layer F.SilkS) (width 0.2))
  (fp_line (start 28.194 -11.43) (end 28.194 -5.334) (layer F.SilkS) (width 0.2))
  (fp_line (start 27.686 -11.43) (end 28.194 -11.43) (layer F.SilkS) (width 0.2))
  (fp_line (start 27.686 -5.334) (end 27.686 -11.43) (layer F.SilkS) (width 0.2))
  (fp_line (start 29.21 -2.794) (end 29.21 -5.334) (layer F.SilkS) (width 0.2))
  (fp_line (start 26.67 -2.794) (end 29.21 -2.794) (layer F.SilkS) (width 0.2))
  (fp_line (start 26.67 -2.794) (end 26.67 -5.334) (layer F.SilkS) (width 0.2))
  (fp_line (start -13.97 -2.794) (end -13.97 -5.334) (layer F.SilkS) (width 0.2))
  (fp_line (start -13.97 -2.794) (end -11.43 -2.794) (layer F.SilkS) (width 0.2))
  (fp_line (start -11.43 -2.794) (end -11.43 -5.334) (layer F.SilkS) (width 0.2))
  (fp_line (start -12.954 -5.334) (end -12.954 -11.43) (layer F.SilkS) (width 0.2))
  (fp_line (start -12.954 -11.43) (end -12.446 -11.43) (layer F.SilkS) (width 0.2))
  (fp_line (start -12.446 -11.43) (end -12.446 -5.334) (layer F.SilkS) (width 0.2))
  (fp_line (start -11.43 -5.334) (end -13.97 -5.334) (layer F.SilkS) (width 0.2))
  (fp_line (start -8.89 -5.334) (end -11.43 -5.334) (layer F.SilkS) (width 0.2))
  (fp_line (start -9.906 -11.43) (end -9.906 -5.334) (layer F.SilkS) (width 0.2))
  (fp_line (start -10.414 -11.43) (end -9.906 -11.43) (layer F.SilkS) (width 0.2))
  (fp_line (start -10.414 -5.334) (end -10.414 -11.43) (layer F.SilkS) (width 0.2))
  (fp_line (start -8.89 -2.794) (end -8.89 -5.334) (layer F.SilkS) (width 0.2))
  (fp_line (start -11.43 -2.794) (end -8.89 -2.794) (layer F.SilkS) (width 0.2))
  (fp_line (start -11.43 -2.794) (end -11.43 -5.334) (layer F.SilkS) (width 0.2))
  (fp_line (start -6.35 -2.794) (end -6.35 -5.334) (layer F.SilkS) (width 0.2))
  (fp_line (start -6.35 -2.794) (end -3.81 -2.794) (layer F.SilkS) (width 0.2))
  (fp_line (start -3.81 -2.794) (end -3.81 -5.334) (layer F.SilkS) (width 0.2))
  (fp_line (start -5.334 -5.334) (end -5.334 -11.43) (layer F.SilkS) (width 0.2))
  (fp_line (start -5.334 -11.43) (end -4.826 -11.43) (layer F.SilkS) (width 0.2))
  (fp_line (start -4.826 -11.43) (end -4.826 -5.334) (layer F.SilkS) (width 0.2))
  (fp_line (start -3.81 -5.334) (end -6.35 -5.334) (layer F.SilkS) (width 0.2))
  (fp_line (start -6.35 -5.334) (end -8.89 -5.334) (layer F.SilkS) (width 0.2))
  (fp_line (start -7.366 -11.43) (end -7.366 -5.334) (layer F.SilkS) (width 0.2))
  (fp_line (start -7.874 -11.43) (end -7.366 -11.43) (layer F.SilkS) (width 0.2))
  (fp_line (start -7.874 -5.334) (end -7.874 -11.43) (layer F.SilkS) (width 0.2))
  (fp_line (start -6.35 -2.794) (end -6.35 -5.334) (layer F.SilkS) (width 0.2))
  (fp_line (start -8.89 -2.794) (end -6.35 -2.794) (layer F.SilkS) (width 0.2))
  (fp_line (start -8.89 -2.794) (end -8.89 -5.334) (layer F.SilkS) (width 0.2))
  (fp_line (start 1.27 -2.794) (end 1.27 -5.334) (layer F.SilkS) (width 0.2))
  (fp_line (start 1.27 -2.794) (end 3.81 -2.794) (layer F.SilkS) (width 0.2))
  (fp_line (start 3.81 -2.794) (end 3.81 -5.334) (layer F.SilkS) (width 0.2))
  (fp_line (start 2.286 -5.334) (end 2.286 -11.43) (layer F.SilkS) (width 0.2))
  (fp_line (start 2.286 -11.43) (end 2.794 -11.43) (layer F.SilkS) (width 0.2))
  (fp_line (start 2.794 -11.43) (end 2.794 -5.334) (layer F.SilkS) (width 0.2))
  (fp_line (start 3.81 -5.334) (end 1.27 -5.334) (layer F.SilkS) (width 0.2))
  (fp_line (start 6.35 -5.334) (end 3.81 -5.334) (layer F.SilkS) (width 0.2))
  (fp_line (start 5.334 -11.43) (end 5.334 -5.334) (layer F.SilkS) (width 0.2))
  (fp_line (start 4.826 -11.43) (end 5.334 -11.43) (layer F.SilkS) (width 0.2))
  (fp_line (start 4.826 -5.334) (end 4.826 -11.43) (layer F.SilkS) (width 0.2))
  (fp_line (start 6.35 -2.794) (end 6.35 -5.334) (layer F.SilkS) (width 0.2))
  (fp_line (start 3.81 -2.794) (end 6.35 -2.794) (layer F.SilkS) (width 0.2))
  (fp_line (start 3.81 -2.794) (end 3.81 -5.334) (layer F.SilkS) (width 0.2))
  (fp_line (start -1.27 -2.794) (end -1.27 -5.334) (layer F.SilkS) (width 0.2))
  (fp_line (start -1.27 -2.794) (end 1.27 -2.794) (layer F.SilkS) (width 0.2))
  (fp_line (start 1.27 -2.794) (end 1.27 -5.334) (layer F.SilkS) (width 0.2))
  (fp_line (start -0.254 -5.334) (end -0.254 -11.43) (layer F.SilkS) (width 0.2))
  (fp_line (start -0.254 -11.43) (end 0.254 -11.43) (layer F.SilkS) (width 0.2))
  (fp_line (start 0.254 -11.43) (end 0.254 -5.334) (layer F.SilkS) (width 0.2))
  (fp_line (start 1.27 -5.334) (end -1.27 -5.334) (layer F.SilkS) (width 0.2))
  (fp_line (start -1.27 -5.334) (end -3.81 -5.334) (layer F.SilkS) (width 0.2))
  (fp_line (start -2.286 -11.43) (end -2.286 -5.334) (layer F.SilkS) (width 0.2))
  (fp_line (start -2.794 -11.43) (end -2.286 -11.43) (layer F.SilkS) (width 0.2))
  (fp_line (start -2.794 -5.334) (end -2.794 -11.43) (layer F.SilkS) (width 0.2))
  (fp_line (start -1.27 -2.794) (end -1.27 -5.334) (layer F.SilkS) (width 0.2))
  (fp_line (start -3.81 -2.794) (end -1.27 -2.794) (layer F.SilkS) (width 0.2))
  (fp_line (start -3.81 -2.794) (end -3.81 -5.334) (layer F.SilkS) (width 0.2))
  (fp_line (start -24.13 -2.794) (end -24.13 -5.334) (layer F.SilkS) (width 0.2))
  (fp_line (start -24.13 -2.794) (end -21.59 -2.794) (layer F.SilkS) (width 0.2))
  (fp_line (start -21.59 -2.794) (end -21.59 -5.334) (layer F.SilkS) (width 0.2))
  (fp_line (start -23.114 -5.334) (end -23.114 -11.43) (layer F.SilkS) (width 0.2))
  (fp_line (start -23.114 -11.43) (end -22.606 -11.43) (layer F.SilkS) (width 0.2))
  (fp_line (start -22.606 -11.43) (end -22.606 -5.334) (layer F.SilkS) (width 0.2))
  (fp_line (start -21.59 -5.334) (end -24.13 -5.334) (layer F.SilkS) (width 0.2))
  (fp_line (start -19.05 -5.334) (end -21.59 -5.334) (layer F.SilkS) (width 0.2))
  (fp_line (start -20.066 -11.43) (end -20.066 -5.334) (layer F.SilkS) (width 0.2))
  (fp_line (start -20.574 -11.43) (end -20.066 -11.43) (layer F.SilkS) (width 0.2))
  (fp_line (start -20.574 -5.334) (end -20.574 -11.43) (layer F.SilkS) (width 0.2))
  (fp_line (start -19.05 -2.794) (end -19.05 -5.334) (layer F.SilkS) (width 0.2))
  (fp_line (start -21.59 -2.794) (end -19.05 -2.794) (layer F.SilkS) (width 0.2))
  (fp_line (start -21.59 -2.794) (end -21.59 -5.334) (layer F.SilkS) (width 0.2))
  (fp_line (start -16.51 -2.794) (end -16.51 -5.334) (layer F.SilkS) (width 0.2))
  (fp_line (start -16.51 -2.794) (end -13.97 -2.794) (layer F.SilkS) (width 0.2))
  (fp_line (start -13.97 -2.794) (end -13.97 -5.334) (layer F.SilkS) (width 0.2))
  (fp_line (start -15.494 -5.334) (end -15.494 -11.43) (layer F.SilkS) (width 0.2))
  (fp_line (start -15.494 -11.43) (end -14.986 -11.43) (layer F.SilkS) (width 0.2))
  (fp_line (start -14.986 -11.43) (end -14.986 -5.334) (layer F.SilkS) (width 0.2))
  (fp_line (start -13.97 -5.334) (end -16.51 -5.334) (layer F.SilkS) (width 0.2))
  (fp_line (start -16.51 -5.334) (end -19.05 -5.334) (layer F.SilkS) (width 0.2))
  (fp_line (start -17.526 -11.43) (end -17.526 -5.334) (layer F.SilkS) (width 0.2))
  (fp_line (start -18.034 -11.43) (end -17.526 -11.43) (layer F.SilkS) (width 0.2))
  (fp_line (start -18.034 -5.334) (end -18.034 -11.43) (layer F.SilkS) (width 0.2))
  (fp_line (start -16.51 -2.794) (end -16.51 -5.334) (layer F.SilkS) (width 0.2))
  (fp_line (start -19.05 -2.794) (end -16.51 -2.794) (layer F.SilkS) (width 0.2))
  (fp_line (start -19.05 -2.794) (end -19.05 -5.334) (layer F.SilkS) (width 0.2))
  (fp_line (start -29.21 -2.794) (end -29.21 -5.334) (layer F.SilkS) (width 0.2))
  (fp_line (start -29.21 -2.794) (end -26.67 -2.794) (layer F.SilkS) (width 0.2))
  (fp_line (start -26.67 -2.794) (end -26.67 -5.334) (layer F.SilkS) (width 0.2))
  (fp_line (start -28.194 -5.334) (end -28.194 -11.43) (layer F.SilkS) (width 0.2))
  (fp_line (start -28.194 -11.43) (end -27.686 -11.43) (layer F.SilkS) (width 0.2))
  (fp_line (start -27.686 -11.43) (end -27.686 -5.334) (layer F.SilkS) (width 0.2))
  (fp_line (start -26.67 -5.334) (end -29.21 -5.334) (layer F.SilkS) (width 0.2))
  (fp_line (start -24.13 -5.334) (end -26.67 -5.334) (layer F.SilkS) (width 0.2))
  (fp_line (start -25.146 -11.43) (end -25.146 -5.334) (layer F.SilkS) (width 0.2))
  (fp_line (start -25.654 -11.43) (end -25.146 -11.43) (layer F.SilkS) (width 0.2))
  (fp_line (start -25.654 -5.334) (end -25.654 -11.43) (layer F.SilkS) (width 0.2))
  (fp_line (start -24.13 -2.794) (end -24.13 -5.334) (layer F.SilkS) (width 0.2))
  (fp_line (start -26.67 -2.794) (end -24.13 -2.794) (layer F.SilkS) (width 0.2))
  (fp_line (start -26.67 -2.794) (end -26.67 -5.334) (layer F.SilkS) (width 0.2))
  (fp_line (start -31.75 -2.794) (end -31.75 -5.334) (layer F.SilkS) (width 0.2))
  (fp_line (start -31.75 -2.794) (end -29.21 -2.794) (layer F.SilkS) (width 0.2))
  (fp_line (start -29.21 -2.794) (end -29.21 -5.334) (layer F.SilkS) (width 0.2))
  (fp_line (start -30.734 -5.334) (end -30.734 -11.43) (layer F.SilkS) (width 0.2))
  (fp_line (start -30.734 -11.43) (end -30.226 -11.43) (layer F.SilkS) (width 0.2))
  (fp_line (start -30.226 -11.43) (end -30.226 -5.334) (layer F.SilkS) (width 0.2))
  (fp_line (start -29.21 -5.334) (end -31.75 -5.334) (layer F.SilkS) (width 0.2))
  (fp_line (start -31.75 -5.334) (end -34.29 -5.334) (layer F.SilkS) (width 0.2))
  (fp_line (start -32.766 -11.43) (end -32.766 -5.334) (layer F.SilkS) (width 0.2))
  (fp_line (start -33.274 -11.43) (end -32.766 -11.43) (layer F.SilkS) (width 0.2))
  (fp_line (start -33.274 -5.334) (end -33.274 -11.43) (layer F.SilkS) (width 0.2))
  (fp_line (start -31.75 -2.794) (end -31.75 -5.334) (layer F.SilkS) (width 0.2))
  (fp_line (start -34.29 -2.794) (end -31.75 -2.794) (layer F.SilkS) (width 0.2))
  (fp_line (start -34.29 -2.794) (end -34.29 -5.334) (layer F.SilkS) (width 0.2))
  (pad  1 thru_hole rect (at -33.02 1.27) (size 1.7272 1.7272) (drill 1.0) (layers *.Cu *.Mask F.SilkS))
  (pad  3 thru_hole oval (at -30.48 1.27) (size 1.7272 1.7272) (drill 1.0) (layers *.Cu *.Mask F.SilkS))
  (pad  5 thru_hole oval (at -27.94 1.27) (size 1.7272 1.7272) (drill 1.0) (layers *.Cu *.Mask F.SilkS))
  (pad  7 thru_hole oval (at -25.4 1.27) (size 1.7272 1.7272) (drill 1.0) (layers *.Cu *.Mask F.SilkS))
  (pad  9 thru_hole oval (at -22.86 1.27) (size 1.7272 1.7272) (drill 1.0) (layers *.Cu *.Mask F.SilkS))
  (pad 11 thru_hole oval (at -20.32 1.27) (size 1.7272 1.7272) (drill 1.0) (layers *.Cu *.Mask F.SilkS))
  (pad 13 thru_hole oval (at -17.78 1.27) (size 1.7272 1.7272) (drill 1.0) (layers *.Cu *.Mask F.SilkS))
  (pad 15 thru_hole oval (at -15.24 1.27) (size 1.7272 1.7272) (drill 1.0) (layers *.Cu *.Mask F.SilkS))
  (pad 17 thru_hole oval (at -12.7 1.27) (size 1.7272 1.7272) (drill 1.0) (layers *.Cu *.Mask F.SilkS))
  (pad 19 thru_hole oval (at -10.16 1.27) (size 1.7272 1.7272) (drill 1.0) (layers *.Cu *.Mask F.SilkS))
  (pad 21 thru_hole oval (at -7.62 1.27) (size 1.7272 1.7272) (drill 1.0) (layers *.Cu *.Mask F.SilkS))
  (pad 23 thru_hole oval (at -5.08 1.27) (size 1.7272 1.7272) (drill 1.0) (layers *.Cu *.Mask F.SilkS))
  (pad 25 thru_hole oval (at -2.54 1.27) (size 1.7272 1.7272) (drill 1.0) (layers *.Cu *.Mask F.SilkS))
  (pad 27 thru_hole oval (at 0 1.27) (size 1.7272 1.7272) (drill 1.0) (layers *.Cu *.Mask F.SilkS))
  (pad 29 thru_hole oval (at 2.54 1.27) (size 1.7272 1.7272) (drill 1.0) (layers *.Cu *.Mask F.SilkS))
  (pad 31 thru_hole oval (at 5.08 1.27) (size 1.7272 1.7272) (drill 1.0) (layers *.Cu *.Mask F.SilkS))
  (pad 33 thru_hole oval (at 7.62 1.27) (size 1.7272 1.7272) (drill 1.0) (layers *.Cu *.Mask F.SilkS))
  (pad 35 thru_hole oval (at 10.16 1.27) (size 1.7272 1.7272) (drill 1.0) (layers *.Cu *.Mask F.SilkS))
  (pad 37 thru_hole oval (at 12.7 1.27) (size 1.7272 1.7272) (drill 1.0) (layers *.Cu *.Mask F.SilkS))
  (pad 39 thru_hole oval (at 15.24 1.27) (size 1.7272 1.7272) (drill 1.0) (layers *.Cu *.Mask F.SilkS))
  (pad 41 thru_hole oval (at 17.78 1.27) (size 1.7272 1.7272) (drill 1.0) (layers *.Cu *.Mask F.SilkS))
  (pad 43 thru_hole oval (at 20.32 1.27) (size 1.7272 1.7272) (drill 1.0) (layers *.Cu *.Mask F.SilkS))
  (pad 45 thru_hole oval (at 22.86 1.27) (size 1.7272 1.7272) (drill 1.0) (layers *.Cu *.Mask F.SilkS))
  (pad 47 thru_hole oval (at 25.4 1.27) (size 1.7272 1.7272) (drill 1.0) (layers *.Cu *.Mask F.SilkS))
  (pad 49 thru_hole oval (at 27.94 1.27) (size 1.7272 1.7272) (drill 1.0) (layers *.Cu *.Mask F.SilkS))
  (pad 51 thru_hole oval (at 30.48 1.27) (size 1.7272 1.7272) (drill 1.0) (layers *.Cu *.Mask F.SilkS))
  (pad 53 thru_hole oval (at 33.02 1.27) (size 1.7272 1.7272) (drill 1.0) (layers *.Cu *.Mask F.SilkS))
  (pad 54 thru_hole oval (at 33.02 -1.27) (size 1.7272 1.7272) (drill 1.0) (layers *.Cu *.Mask F.SilkS))
  (pad 52 thru_hole oval (at 30.48 -1.27) (size 1.7272 1.7272) (drill 1.0) (layers *.Cu *.Mask F.SilkS))
  (pad 50 thru_hole oval (at 27.94 -1.27) (size 1.7272 1.7272) (drill 1.0) (layers *.Cu *.Mask F.SilkS))
  (pad 48 thru_hole oval (at 25.4 -1.27) (size 1.7272 1.7272) (drill 1.0) (layers *.Cu *.Mask F.SilkS))
  (pad 46 thru_hole oval (at 22.86 -1.27) (size 1.7272 1.7272) (drill 1.0) (layers *.Cu *.Mask F.SilkS))
  (pad 44 thru_hole oval (at 20.32 -1.27) (size 1.7272 1.7272) (drill 1.0) (layers *.Cu *.Mask F.SilkS))
  (pad 42 thru_hole oval (at 17.78 -1.27) (size 1.7272 1.7272) (drill 1.0) (layers *.Cu *.Mask F.SilkS))
  (pad 40 thru_hole oval (at 15.24 -1.27) (size 1.7272 1.7272) (drill 1.0) (layers *.Cu *.Mask F.SilkS))
  (pad 38 thru_hole oval (at 12.7 -1.27) (size 1.7272 1.7272) (drill 1.0) (layers *.Cu *.Mask F.SilkS))
  (pad 36 thru_hole oval (at 10.16 -1.27) (size 1.7272 1.7272) (drill 1.0) (layers *.Cu *.Mask F.SilkS))
  (pad 34 thru_hole oval (at 7.62 -1.27) (size 1.7272 1.7272) (drill 1.0) (layers *.Cu *.Mask F.SilkS))
  (pad 32 thru_hole oval (at 5.08 -1.27) (size 1.7272 1.7272) (drill 1.0) (layers *.Cu *.Mask F.SilkS))
  (pad 30 thru_hole oval (at 2.54 -1.27) (size 1.7272 1.7272) (drill 1.0) (layers *.Cu *.Mask F.SilkS))
  (pad 28 thru_hole oval (at 0 -1.27) (size 1.7272 1.7272) (drill 1.0) (layers *.Cu *.Mask F.SilkS))
  (pad 26 thru_hole oval (at -2.54 -1.27) (size 1.7272 1.7272) (drill 1.0) (layers *.Cu *.Mask F.SilkS))
  (pad 24 thru_hole oval (at -5.08 -1.27) (size 1.7272 1.7272) (drill 1.0) (layers *.Cu *.Mask F.SilkS))
  (pad 22 thru_hole oval (at -7.62 -1.27) (size 1.7272 1.7272) (drill 1.0) (layers *.Cu *.Mask F.SilkS))
  (pad 20 thru_hole oval (at -10.16 -1.27) (size 1.7272 1.7272) (drill 1.0) (layers *.Cu *.Mask F.SilkS))
  (pad 18 thru_hole oval (at -12.7 -1.27) (size 1.7272 1.7272) (drill 1.0) (layers *.Cu *.Mask F.SilkS))
  (pad 16 thru_hole oval (at -15.24 -1.27) (size 1.7272 1.7272) (drill 1.0) (layers *.Cu *.Mask F.SilkS))
  (pad 14 thru_hole oval (at -17.78 -1.27) (size 1.7272 1.7272) (drill 1.0) (layers *.Cu *.Mask F.SilkS))
  (pad 12 thru_hole oval (at -20.32 -1.27) (size 1.7272 1.7272) (drill 1.0) (layers *.Cu *.Mask F.SilkS))
  (pad 10 thru_hole oval (at -22.86 -1.27) (size 1.7272 1.7272) (drill 1.0) (layers *.Cu *.Mask F.SilkS))
  (pad  8 thru_hole oval (at -25.4 -1.27) (size 1.7272 1.7272) (drill 1.0) (layers *.Cu *.Mask F.SilkS))
  (pad  6 thru_hole oval (at -27.94 -1.27) (size 1.7272 1.7272) (drill 1.0) (layers *.Cu *.Mask F.SilkS))
  (pad  4 thru_hole oval (at -30.48 -1.27) (size 1.7272 1.7272) (drill 1.0) (layers *.Cu *.Mask F.SilkS))
  (pad  2 thru_hole oval (at -33.02 -1.27) (size 1.7272 1.7272) (drill 1.0) (layers *.Cu *.Mask F.SilkS))
  (model Pin_Headers/Pin_Header_Angled_2x27.wrl
    (at (xyz 0 0 0))
    (scale (xyz 1 1 1))
    (rotate (xyz 0 0 0))
  )
)
