(module BS_HEADER_A_1X21 (layer F.Cu)
  (descr "1 pin")
  (tags "CONN DEV")
  (fp_text reference BS_HEADER_A_1X21 (at 0 2.286) (layer F.SilkS)
    (effects (font (size 1 1) (thickness 0.1778)))
  )
  (fp_text value Val** (at 0 0) (layer F.SilkS) hide
    (effects (font (size 1 1) (thickness 0.1778)))
  )
  (fp_line (start -24.13 -4.064) (end -26.67 -1.524) (layer F.SilkS) (width 0.2))
  (fp_line (start -26.67 -4.064) (end -24.13 -1.524) (layer F.SilkS) (width 0.2))
  (fp_line (start -25.527 -4.191) (end -25.527 -10.033) (layer F.SilkS) (width 0.2))
  (fp_line (start -25.527 -10.033) (end -25.273 -10.033) (layer F.SilkS) (width 0.2))
  (fp_line (start -25.273 -10.033) (end -25.273 -4.191) (layer F.SilkS) (width 0.2))
  (fp_line (start -25.273 -4.191) (end -25.4 -4.191) (layer F.SilkS) (width 0.2))
  (fp_line (start -25.4 -4.191) (end -25.4 -10.033) (layer F.SilkS) (width 0.2))
  (fp_line (start -5.334 -1.524) (end -5.334 -1.32) (layer F.SilkS) (width 0.2))
  (fp_line (start -4.826 -1.524) (end -4.826 -1.32) (layer F.SilkS) (width 0.2))
  (fp_line (start -2.794 -1.524) (end -2.794 -1.32) (layer F.SilkS) (width 0.2))
  (fp_line (start -2.286 -1.524) (end -2.286 -1.32) (layer F.SilkS) (width 0.2))
  (fp_line (start -0.254 -1.524) (end -0.254 -1.32) (layer F.SilkS) (width 0.2))
  (fp_line (start 0.254 -1.524) (end 0.254 -1.32) (layer F.SilkS) (width 0.2))
  (fp_line (start 2.286 -1.524) (end 2.286 -1.32) (layer F.SilkS) (width 0.2))
  (fp_line (start 2.794 -1.524) (end 2.794 -1.32) (layer F.SilkS) (width 0.2))
  (fp_line (start 12.954 -1.524) (end 12.954 -1.32) (layer F.SilkS) (width 0.2))
  (fp_line (start 12.446 -1.524) (end 12.446 -1.32) (layer F.SilkS) (width 0.2))
  (fp_line (start 10.414 -1.524) (end 10.414 -1.32) (layer F.SilkS) (width 0.2))
  (fp_line (start 9.906 -1.524) (end 9.906 -1.32) (layer F.SilkS) (width 0.2))
  (fp_line (start 7.874 -1.524) (end 7.874 -1.32) (layer F.SilkS) (width 0.2))
  (fp_line (start 7.366 -1.524) (end 7.366 -1.32) (layer F.SilkS) (width 0.2))
  (fp_line (start 5.334 -1.524) (end 5.334 -1.32) (layer F.SilkS) (width 0.2))
  (fp_line (start 4.826 -1.524) (end 4.826 -1.32) (layer F.SilkS) (width 0.2))
  (fp_line (start 25.146 -1.524) (end 25.146 -1.32) (layer F.SilkS) (width 0.2))
  (fp_line (start 25.654 -1.524) (end 25.654 -1.32) (layer F.SilkS) (width 0.2))
  (fp_line (start 23.114 -1.524) (end 23.114 -1.32) (layer F.SilkS) (width 0.2))
  (fp_line (start 22.606 -1.524) (end 22.606 -1.32) (layer F.SilkS) (width 0.2))
  (fp_line (start 20.574 -1.524) (end 20.574 -1.32) (layer F.SilkS) (width 0.2))
  (fp_line (start 20.066 -1.524) (end 20.066 -1.32) (layer F.SilkS) (width 0.2))
  (fp_line (start 18.034 -1.524) (end 18.034 -1.32) (layer F.SilkS) (width 0.2))
  (fp_line (start 17.526 -1.524) (end 17.526 -1.32) (layer F.SilkS) (width 0.2))
  (fp_line (start 15.494 -1.524) (end 15.494 -1.32) (layer F.SilkS) (width 0.2))
  (fp_line (start 14.986 -1.524) (end 14.986 -1.32) (layer F.SilkS) (width 0.2))
  (fp_line (start -25.654 -1.524) (end -25.654 -1.32) (layer F.SilkS) (width 0.2))
  (fp_line (start -25.146 -1.524) (end -25.146 -1.32) (layer F.SilkS) (width 0.2))
  (fp_line (start -23.114 -1.524) (end -23.114 -1.32) (layer F.SilkS) (width 0.2))
  (fp_line (start -22.606 -1.524) (end -22.606 -1.32) (layer F.SilkS) (width 0.2))
  (fp_line (start -20.574 -1.524) (end -20.574 -1.32) (layer F.SilkS) (width 0.2))
  (fp_line (start -20.066 -1.524) (end -20.066 -1.32) (layer F.SilkS) (width 0.2))
  (fp_line (start -18.034 -1.524) (end -18.034 -1.32) (layer F.SilkS) (width 0.2))
  (fp_line (start -17.526 -1.524) (end -17.526 -1.32) (layer F.SilkS) (width 0.2))
  (fp_line (start -7.366 -1.524) (end -7.366 -1.32) (layer F.SilkS) (width 0.2))
  (fp_line (start -7.874 -1.524) (end -7.874 -1.32) (layer F.SilkS) (width 0.2))
  (fp_line (start -9.906 -1.524) (end -9.906 -1.32) (layer F.SilkS) (width 0.2))
  (fp_line (start -10.414 -1.524) (end -10.414 -1.32) (layer F.SilkS) (width 0.2))
  (fp_line (start -12.446 -1.524) (end -12.446 -1.32) (layer F.SilkS) (width 0.2))
  (fp_line (start -12.954 -1.524) (end -12.954 -1.32) (layer F.SilkS) (width 0.2))
  (fp_line (start -14.986 -1.524) (end -14.986 -1.32) (layer F.SilkS) (width 0.2))
  (fp_line (start -15.494 -1.524) (end -15.494 -1.32) (layer F.SilkS) (width 0.2))
  (fp_line (start -8.89 -1.524) (end -8.89 -4.064) (layer F.SilkS) (width 0.2))
  (fp_line (start -8.89 -1.524) (end -6.35 -1.524) (layer F.SilkS) (width 0.2))
  (fp_line (start -6.35 -1.524) (end -6.35 -4.064) (layer F.SilkS) (width 0.2))
  (fp_line (start -7.874 -4.064) (end -7.874 -10.16) (layer F.SilkS) (width 0.2))
  (fp_line (start -7.874 -10.16) (end -7.366 -10.16) (layer F.SilkS) (width 0.2))
  (fp_line (start -7.366 -10.16) (end -7.366 -4.064) (layer F.SilkS) (width 0.2))
  (fp_line (start -6.35 -4.064) (end -8.89 -4.064) (layer F.SilkS) (width 0.2))
  (fp_line (start -3.81 -4.064) (end -6.35 -4.064) (layer F.SilkS) (width 0.2))
  (fp_line (start -4.826 -10.16) (end -4.826 -4.064) (layer F.SilkS) (width 0.2))
  (fp_line (start -5.334 -10.16) (end -4.826 -10.16) (layer F.SilkS) (width 0.2))
  (fp_line (start -5.334 -4.064) (end -5.334 -10.16) (layer F.SilkS) (width 0.2))
  (fp_line (start -3.81 -1.524) (end -3.81 -4.064) (layer F.SilkS) (width 0.2))
  (fp_line (start -6.35 -1.524) (end -3.81 -1.524) (layer F.SilkS) (width 0.2))
  (fp_line (start -6.35 -1.524) (end -6.35 -4.064) (layer F.SilkS) (width 0.2))
  (fp_line (start -1.27 -1.524) (end -1.27 -4.064) (layer F.SilkS) (width 0.2))
  (fp_line (start -1.27 -1.524) (end 1.27 -1.524) (layer F.SilkS) (width 0.2))
  (fp_line (start 1.27 -1.524) (end 1.27 -4.064) (layer F.SilkS) (width 0.2))
  (fp_line (start -0.254 -4.064) (end -0.254 -10.16) (layer F.SilkS) (width 0.2))
  (fp_line (start -0.254 -10.16) (end 0.254 -10.16) (layer F.SilkS) (width 0.2))
  (fp_line (start 0.254 -10.16) (end 0.254 -4.064) (layer F.SilkS) (width 0.2))
  (fp_line (start 1.27 -4.064) (end -1.27 -4.064) (layer F.SilkS) (width 0.2))
  (fp_line (start -1.27 -4.064) (end -3.81 -4.064) (layer F.SilkS) (width 0.2))
  (fp_line (start -2.286 -10.16) (end -2.286 -4.064) (layer F.SilkS) (width 0.2))
  (fp_line (start -2.794 -10.16) (end -2.286 -10.16) (layer F.SilkS) (width 0.2))
  (fp_line (start -2.794 -4.064) (end -2.794 -10.16) (layer F.SilkS) (width 0.2))
  (fp_line (start -1.27 -1.524) (end -1.27 -4.064) (layer F.SilkS) (width 0.2))
  (fp_line (start -3.81 -1.524) (end -1.27 -1.524) (layer F.SilkS) (width 0.2))
  (fp_line (start -3.81 -1.524) (end -3.81 -4.064) (layer F.SilkS) (width 0.2))
  (fp_line (start 6.35 -1.524) (end 6.35 -4.064) (layer F.SilkS) (width 0.2))
  (fp_line (start 6.35 -1.524) (end 8.89 -1.524) (layer F.SilkS) (width 0.2))
  (fp_line (start 8.89 -1.524) (end 8.89 -4.064) (layer F.SilkS) (width 0.2))
  (fp_line (start 7.366 -4.064) (end 7.366 -10.16) (layer F.SilkS) (width 0.2))
  (fp_line (start 7.366 -10.16) (end 7.874 -10.16) (layer F.SilkS) (width 0.2))
  (fp_line (start 7.874 -10.16) (end 7.874 -4.064) (layer F.SilkS) (width 0.2))
  (fp_line (start 8.89 -4.064) (end 6.35 -4.064) (layer F.SilkS) (width 0.2))
  (fp_line (start 11.43 -4.064) (end 8.89 -4.064) (layer F.SilkS) (width 0.2))
  (fp_line (start 10.414 -10.16) (end 10.414 -4.064) (layer F.SilkS) (width 0.2))
  (fp_line (start 9.906 -10.16) (end 10.414 -10.16) (layer F.SilkS) (width 0.2))
  (fp_line (start 9.906 -4.064) (end 9.906 -10.16) (layer F.SilkS) (width 0.2))
  (fp_line (start 11.43 -1.524) (end 11.43 -4.064) (layer F.SilkS) (width 0.2))
  (fp_line (start 8.89 -1.524) (end 11.43 -1.524) (layer F.SilkS) (width 0.2))
  (fp_line (start 8.89 -1.524) (end 8.89 -4.064) (layer F.SilkS) (width 0.2))
  (fp_line (start 3.81 -1.524) (end 3.81 -4.064) (layer F.SilkS) (width 0.2))
  (fp_line (start 3.81 -1.524) (end 6.35 -1.524) (layer F.SilkS) (width 0.2))
  (fp_line (start 6.35 -1.524) (end 6.35 -4.064) (layer F.SilkS) (width 0.2))
  (fp_line (start 4.826 -4.064) (end 4.826 -10.16) (layer F.SilkS) (width 0.2))
  (fp_line (start 4.826 -10.16) (end 5.334 -10.16) (layer F.SilkS) (width 0.2))
  (fp_line (start 5.334 -10.16) (end 5.334 -4.064) (layer F.SilkS) (width 0.2))
  (fp_line (start 6.35 -4.064) (end 3.81 -4.064) (layer F.SilkS) (width 0.2))
  (fp_line (start 3.81 -4.064) (end 1.27 -4.064) (layer F.SilkS) (width 0.2))
  (fp_line (start 2.794 -10.16) (end 2.794 -4.064) (layer F.SilkS) (width 0.2))
  (fp_line (start 2.286 -10.16) (end 2.794 -10.16) (layer F.SilkS) (width 0.2))
  (fp_line (start 2.286 -4.064) (end 2.286 -10.16) (layer F.SilkS) (width 0.2))
  (fp_line (start 3.81 -1.524) (end 3.81 -4.064) (layer F.SilkS) (width 0.2))
  (fp_line (start 1.27 -1.524) (end 3.81 -1.524) (layer F.SilkS) (width 0.2))
  (fp_line (start 1.27 -1.524) (end 1.27 -4.064) (layer F.SilkS) (width 0.2))
  (fp_line (start 21.59 -1.524) (end 21.59 -4.064) (layer F.SilkS) (width 0.2))
  (fp_line (start 21.59 -1.524) (end 24.13 -1.524) (layer F.SilkS) (width 0.2))
  (fp_line (start 24.13 -1.524) (end 24.13 -4.064) (layer F.SilkS) (width 0.2))
  (fp_line (start 22.606 -4.064) (end 22.606 -10.16) (layer F.SilkS) (width 0.2))
  (fp_line (start 22.606 -10.16) (end 23.114 -10.16) (layer F.SilkS) (width 0.2))
  (fp_line (start 23.114 -10.16) (end 23.114 -4.064) (layer F.SilkS) (width 0.2))
  (fp_line (start 24.13 -4.064) (end 21.59 -4.064) (layer F.SilkS) (width 0.2))
  (fp_line (start 26.67 -4.064) (end 24.13 -4.064) (layer F.SilkS) (width 0.2))
  (fp_line (start 25.654 -10.16) (end 25.654 -4.064) (layer F.SilkS) (width 0.2))
  (fp_line (start 25.146 -10.16) (end 25.654 -10.16) (layer F.SilkS) (width 0.2))
  (fp_line (start 25.146 -4.064) (end 25.146 -10.16) (layer F.SilkS) (width 0.2))
  (fp_line (start 24.13 -1.524) (end 26.67 -1.524) (layer F.SilkS) (width 0.2))
  (fp_line (start 24.13 -1.524) (end 24.13 -4.064) (layer F.SilkS) (width 0.2))
  (fp_line (start 26.67 -1.524) (end 26.67 -4.064) (layer F.SilkS) (width 0.2))
  (fp_line (start 16.51 -1.524) (end 16.51 -4.064) (layer F.SilkS) (width 0.2))
  (fp_line (start 16.51 -1.524) (end 19.05 -1.524) (layer F.SilkS) (width 0.2))
  (fp_line (start 19.05 -1.524) (end 19.05 -4.064) (layer F.SilkS) (width 0.2))
  (fp_line (start 17.526 -4.064) (end 17.526 -10.16) (layer F.SilkS) (width 0.2))
  (fp_line (start 17.526 -10.16) (end 18.034 -10.16) (layer F.SilkS) (width 0.2))
  (fp_line (start 18.034 -10.16) (end 18.034 -4.064) (layer F.SilkS) (width 0.2))
  (fp_line (start 19.05 -4.064) (end 16.51 -4.064) (layer F.SilkS) (width 0.2))
  (fp_line (start 21.59 -4.064) (end 19.05 -4.064) (layer F.SilkS) (width 0.2))
  (fp_line (start 20.574 -10.16) (end 20.574 -4.064) (layer F.SilkS) (width 0.2))
  (fp_line (start 20.066 -10.16) (end 20.574 -10.16) (layer F.SilkS) (width 0.2))
  (fp_line (start 20.066 -4.064) (end 20.066 -10.16) (layer F.SilkS) (width 0.2))
  (fp_line (start 21.59 -1.524) (end 21.59 -4.064) (layer F.SilkS) (width 0.2))
  (fp_line (start 19.05 -1.524) (end 21.59 -1.524) (layer F.SilkS) (width 0.2))
  (fp_line (start 19.05 -1.524) (end 19.05 -4.064) (layer F.SilkS) (width 0.2))
  (fp_line (start 13.97 -1.524) (end 13.97 -4.064) (layer F.SilkS) (width 0.2))
  (fp_line (start 13.97 -1.524) (end 16.51 -1.524) (layer F.SilkS) (width 0.2))
  (fp_line (start 16.51 -1.524) (end 16.51 -4.064) (layer F.SilkS) (width 0.2))
  (fp_line (start 14.986 -4.064) (end 14.986 -10.16) (layer F.SilkS) (width 0.2))
  (fp_line (start 14.986 -10.16) (end 15.494 -10.16) (layer F.SilkS) (width 0.2))
  (fp_line (start 15.494 -10.16) (end 15.494 -4.064) (layer F.SilkS) (width 0.2))
  (fp_line (start 16.51 -4.064) (end 13.97 -4.064) (layer F.SilkS) (width 0.2))
  (fp_line (start 13.97 -4.064) (end 11.43 -4.064) (layer F.SilkS) (width 0.2))
  (fp_line (start 12.954 -10.16) (end 12.954 -4.064) (layer F.SilkS) (width 0.2))
  (fp_line (start 12.446 -10.16) (end 12.954 -10.16) (layer F.SilkS) (width 0.2))
  (fp_line (start 12.446 -4.064) (end 12.446 -10.16) (layer F.SilkS) (width 0.2))
  (fp_line (start 13.97 -1.524) (end 13.97 -4.064) (layer F.SilkS) (width 0.2))
  (fp_line (start 11.43 -1.524) (end 13.97 -1.524) (layer F.SilkS) (width 0.2))
  (fp_line (start 11.43 -1.524) (end 11.43 -4.064) (layer F.SilkS) (width 0.2))
  (fp_line (start -24.13 -4.064) (end -26.67 -4.064) (layer F.SilkS) (width 0.2))
  (fp_line (start -25.146 -10.16) (end -25.146 -4.064) (layer F.SilkS) (width 0.2))
  (fp_line (start -25.654 -10.16) (end -25.146 -10.16) (layer F.SilkS) (width 0.2))
  (fp_line (start -25.654 -4.064) (end -25.654 -10.16) (layer F.SilkS) (width 0.2))
  (fp_line (start -24.13 -1.524) (end -24.13 -4.064) (layer F.SilkS) (width 0.2))
  (fp_line (start -26.67 -1.524) (end -24.13 -1.524) (layer F.SilkS) (width 0.2))
  (fp_line (start -26.67 -1.524) (end -26.67 -4.064) (layer F.SilkS) (width 0.2))
  (fp_line (start -21.59 -1.524) (end -21.59 -4.064) (layer F.SilkS) (width 0.2))
  (fp_line (start -21.59 -1.524) (end -19.05 -1.524) (layer F.SilkS) (width 0.2))
  (fp_line (start -19.05 -1.524) (end -19.05 -4.064) (layer F.SilkS) (width 0.2))
  (fp_line (start -20.574 -4.064) (end -20.574 -10.16) (layer F.SilkS) (width 0.2))
  (fp_line (start -20.574 -10.16) (end -20.066 -10.16) (layer F.SilkS) (width 0.2))
  (fp_line (start -20.066 -10.16) (end -20.066 -4.064) (layer F.SilkS) (width 0.2))
  (fp_line (start -19.05 -4.064) (end -21.59 -4.064) (layer F.SilkS) (width 0.2))
  (fp_line (start -21.59 -4.064) (end -24.13 -4.064) (layer F.SilkS) (width 0.2))
  (fp_line (start -22.606 -10.16) (end -22.606 -4.064) (layer F.SilkS) (width 0.2))
  (fp_line (start -23.114 -10.16) (end -22.606 -10.16) (layer F.SilkS) (width 0.2))
  (fp_line (start -23.114 -4.064) (end -23.114 -10.16) (layer F.SilkS) (width 0.2))
  (fp_line (start -21.59 -1.524) (end -21.59 -4.064) (layer F.SilkS) (width 0.2))
  (fp_line (start -24.13 -1.524) (end -21.59 -1.524) (layer F.SilkS) (width 0.2))
  (fp_line (start -24.13 -1.524) (end -24.13 -4.064) (layer F.SilkS) (width 0.2))
  (fp_line (start -13.97 -1.524) (end -13.97 -4.064) (layer F.SilkS) (width 0.2))
  (fp_line (start -13.97 -1.524) (end -11.43 -1.524) (layer F.SilkS) (width 0.2))
  (fp_line (start -11.43 -1.524) (end -11.43 -4.064) (layer F.SilkS) (width 0.2))
  (fp_line (start -12.954 -4.064) (end -12.954 -10.16) (layer F.SilkS) (width 0.2))
  (fp_line (start -12.954 -10.16) (end -12.446 -10.16) (layer F.SilkS) (width 0.2))
  (fp_line (start -12.446 -10.16) (end -12.446 -4.064) (layer F.SilkS) (width 0.2))
  (fp_line (start -11.43 -4.064) (end -13.97 -4.064) (layer F.SilkS) (width 0.2))
  (fp_line (start -8.89 -4.064) (end -11.43 -4.064) (layer F.SilkS) (width 0.2))
  (fp_line (start -9.906 -10.16) (end -9.906 -4.064) (layer F.SilkS) (width 0.2))
  (fp_line (start -10.414 -10.16) (end -9.906 -10.16) (layer F.SilkS) (width 0.2))
  (fp_line (start -10.414 -4.064) (end -10.414 -10.16) (layer F.SilkS) (width 0.2))
  (fp_line (start -8.89 -1.524) (end -8.89 -4.064) (layer F.SilkS) (width 0.2))
  (fp_line (start -11.43 -1.524) (end -8.89 -1.524) (layer F.SilkS) (width 0.2))
  (fp_line (start -11.43 -1.524) (end -11.43 -4.064) (layer F.SilkS) (width 0.2))
  (fp_line (start -16.51 -1.524) (end -16.51 -4.064) (layer F.SilkS) (width 0.2))
  (fp_line (start -16.51 -1.524) (end -13.97 -1.524) (layer F.SilkS) (width 0.2))
  (fp_line (start -13.97 -1.524) (end -13.97 -4.064) (layer F.SilkS) (width 0.2))
  (fp_line (start -15.494 -4.064) (end -15.494 -10.16) (layer F.SilkS) (width 0.2))
  (fp_line (start -15.494 -10.16) (end -14.986 -10.16) (layer F.SilkS) (width 0.2))
  (fp_line (start -14.986 -10.16) (end -14.986 -4.064) (layer F.SilkS) (width 0.2))
  (fp_line (start -13.97 -4.064) (end -16.51 -4.064) (layer F.SilkS) (width 0.2))
  (fp_line (start -16.51 -4.064) (end -19.05 -4.064) (layer F.SilkS) (width 0.2))
  (fp_line (start -17.526 -10.16) (end -17.526 -4.064) (layer F.SilkS) (width 0.2))
  (fp_line (start -18.034 -10.16) (end -17.526 -10.16) (layer F.SilkS) (width 0.2))
  (fp_line (start -18.034 -4.064) (end -18.034 -10.16) (layer F.SilkS) (width 0.2))
  (fp_line (start -16.51 -1.524) (end -16.51 -4.064) (layer F.SilkS) (width 0.2))
  (fp_line (start -19.05 -1.524) (end -16.51 -1.524) (layer F.SilkS) (width 0.2))
  (fp_line (start -19.05 -1.524) (end -19.05 -4.064) (layer F.SilkS) (width 0.2))
  (pad 1 thru_hole rect (at -25.4 0) (size 1.7272 2.032) (drill 1.0) (layers *.Cu *.Mask F.SilkS))
  (pad 2 thru_hole oval (at -22.86 0) (size 1.7272 2.032) (drill 1.0) (layers *.Cu *.Mask F.SilkS))
  (pad 3 thru_hole oval (at -20.32 0) (size 1.7272 2.032) (drill 1.0) (layers *.Cu *.Mask F.SilkS))
  (pad 4 thru_hole oval (at -17.78 0) (size 1.7272 2.032) (drill 1.0) (layers *.Cu *.Mask F.SilkS))
  (pad 5 thru_hole oval (at -15.24 0) (size 1.7272 2.032) (drill 1.0) (layers *.Cu *.Mask F.SilkS))
  (pad 6 thru_hole oval (at -12.7 0) (size 1.7272 2.032) (drill 1.0) (layers *.Cu *.Mask F.SilkS))
  (pad 7 thru_hole oval (at -10.16 0) (size 1.7272 2.032) (drill 1.0) (layers *.Cu *.Mask F.SilkS))
  (pad 8 thru_hole oval (at -7.62 0) (size 1.7272 2.032) (drill 1.0) (layers *.Cu *.Mask F.SilkS))
  (pad 9 thru_hole oval (at -5.08 0) (size 1.7272 2.032) (drill 1.0) (layers *.Cu *.Mask F.SilkS))
  (pad 10 thru_hole oval (at -2.54 0) (size 1.7272 2.032) (drill 1.0) (layers *.Cu *.Mask F.SilkS))
  (pad 11 thru_hole oval (at 0 0) (size 1.7272 2.032) (drill 1.0) (layers *.Cu *.Mask F.SilkS))
  (pad 12 thru_hole oval (at 2.54 0) (size 1.7272 2.032) (drill 1.0) (layers *.Cu *.Mask F.SilkS))
  (pad 13 thru_hole oval (at 5.08 0) (size 1.7272 2.032) (drill 1.0) (layers *.Cu *.Mask F.SilkS))
  (pad 14 thru_hole oval (at 7.62 0) (size 1.7272 2.032) (drill 1.0) (layers *.Cu *.Mask F.SilkS))
  (pad 15 thru_hole oval (at 10.16 0) (size 1.7272 2.032) (drill 1.0) (layers *.Cu *.Mask F.SilkS))
  (pad 16 thru_hole oval (at 12.7 0) (size 1.7272 2.032) (drill 1.0) (layers *.Cu *.Mask F.SilkS))
  (pad 17 thru_hole oval (at 15.24 0) (size 1.7272 2.032) (drill 1.0) (layers *.Cu *.Mask F.SilkS))
  (pad 18 thru_hole oval (at 17.78 0) (size 1.7272 2.032) (drill 1.0) (layers *.Cu *.Mask F.SilkS))
  (pad 19 thru_hole oval (at 20.32 0) (size 1.7272 2.032) (drill 1.0) (layers *.Cu *.Mask F.SilkS))
  (pad 20 thru_hole oval (at 22.86 0) (size 1.7272 2.032) (drill 1.0) (layers *.Cu *.Mask F.SilkS))
  (pad 21 thru_hole oval (at 25.4 0) (size 1.7272 2.032) (drill 1.0) (layers *.Cu *.Mask F.SilkS))
  (model Pin_Headers/Pin_Header_Angled_1x21.wrl
    (at (xyz 0 0 0))
    (scale (xyz 1 1 1))
    (rotate (xyz 0 0 0))
  )
)
