(module BS_HEADER_A_1X01 (layer F.Cu)
  (descr "1 pin")
  (tags "CONN DEV")
  (fp_text reference BS_HEADER_A_1X01 (at 0 2.286) (layer F.SilkS)
    (effects (font (size 1 1) (thickness 0.1778)))
  )
  (fp_text value Val** (at 0 0) (layer F.SilkS) hide
    (effects (font (size 1 1) (thickness 0.1778)))
  )
  (fp_line (start 1.27 -4.064) (end -1.27 -1.524) (layer F.SilkS) (width 0.2))
  (fp_line (start -1.27 -4.064) (end 1.27 -1.524) (layer F.SilkS) (width 0.2))
  (fp_line (start -0.127 -4.191) (end -0.127 -10.033) (layer F.SilkS) (width 0.2))
  (fp_line (start -0.127 -10.033) (end 0.127 -10.033) (layer F.SilkS) (width 0.2))
  (fp_line (start 0.127 -10.033) (end 0.127 -4.191) (layer F.SilkS) (width 0.2))
  (fp_line (start 0.127 -4.191) (end 0 -4.191) (layer F.SilkS) (width 0.2))
  (fp_line (start 0 -4.191) (end 0 -10.033) (layer F.SilkS) (width 0.2))
  (fp_line (start 0.254 -1.524) (end 0.254 -1.3208) (layer F.SilkS) (width 0.2))
  (fp_line (start -0.254 -1.524) (end -0.254 -1.3208) (layer F.SilkS) (width 0.2))
  (fp_line (start -1.27 -1.524) (end -1.27 -4.064) (layer F.SilkS) (width 0.2))
  (fp_line (start -1.27 -1.524) (end 1.27 -1.524) (layer F.SilkS) (width 0.2))
  (fp_line (start 1.27 -1.524) (end 1.27 -4.064) (layer F.SilkS) (width 0.2))
  (fp_line (start -0.254 -4.064) (end -0.254 -10.16) (layer F.SilkS) (width 0.2))
  (fp_line (start -0.254 -10.16) (end 0.254 -10.16) (layer F.SilkS) (width 0.2))
  (fp_line (start 0.254 -10.16) (end 0.254 -4.064) (layer F.SilkS) (width 0.2))
  (fp_line (start 1.27 -4.064) (end -1.27 -4.064) (layer F.SilkS) (width 0.2))
  (pad 1 thru_hole rect (at 0 0) (size 2.032 2.032) (drill 1.0) (layers *.Cu *.Mask F.SilkS))
  (model Pin_Headers/Pin_Header_Angled_1x01.wrl
    (at (xyz 0 0 0))
    (scale (xyz 1 1 1))
    (rotate (xyz 0 0 0))
  )
)
