(module BS_HEADER_S_2X02 (layer F.Cu)
  (descr "1 pin")
  (tags "CONN DEV")
  (fp_text reference BS_HEADER_S_2X02 (at 0 -3.81) (layer F.SilkS)
    (effects (font (size 1.0 1.0) (thickness 0.1778)))
  )
  (fp_text value Val** (at 0 0) (layer F.SilkS) hide
    (effects (font (size 1.0 1.0) (thickness 0.1778)))
  )
  (fp_line (start -2.54 0) (end -2.54 2.54) (layer F.SilkS) (width 0.2))
  (fp_line (start -2.54 2.54) (end 0 2.54) (layer F.SilkS) (width 0.2))
  (fp_line (start 0 2.54) (end 0 0) (layer F.SilkS) (width 0.2))
  (fp_line (start 0 0) (end -2.54 0) (layer F.SilkS) (width 0.2))
  (fp_line (start -2.54 0) (end -2.54 -2.54) (layer F.SilkS) (width 0.2))
  (fp_line (start -2.54 -2.54) (end 2.54 -2.54) (layer F.SilkS) (width 0.2))
  (fp_line (start 2.54 -2.54) (end 2.54 2.54) (layer F.SilkS) (width 0.2))
  (fp_line (start 2.54 2.54) (end 0 2.54) (layer F.SilkS) (width 0.2))
  (pad 1 thru_hole rect (at -1.27 1.27) (size 1.8288 1.8288) (drill 1.0) (layers *.Cu *.Mask F.SilkS))
  (pad 3 thru_hole oval (at 1.27 1.27) (size 1.8288 1.8288) (drill 1.0) (layers *.Cu *.Mask F.SilkS))
  (pad 4 thru_hole oval (at 1.27 -1.27) (size 1.8288 1.8288) (drill 1.0) (layers *.Cu *.Mask F.SilkS))
  (pad 2 thru_hole oval (at -1.27 -1.27) (size 1.8288 1.8288) (drill 1.0) (layers *.Cu *.Mask F.SilkS))
  (model Pin_Headers/Pin_Header_Straight_2x02.wrl
    (at (xyz 0 0 0))
    (scale (xyz 1 1 1))
    (rotate (xyz 0 0 0))
  )
)
