(module BS_HEADER_A_2X05 (layer F.Cu)
  (descr "1 pin")
  (tags "CONN DEV")
  (fp_text reference BS_HEADER_A_2X05 (at 0 3.81) (layer F.SilkS)
    (effects (font (size 1 1) (thickness 0.1778)))
  )
  (fp_text value Val** (at 0 0) (layer F.SilkS) hide
    (effects (font (size 1 1) (thickness 0.1778)))
  )
  (fp_line (start 5.334 -0.0762) (end 5.334 0.0508) (layer F.SilkS) (width 0.2))
  (fp_line (start 4.826 -0.0762) (end 4.826 0.0508) (layer F.SilkS) (width 0.2))
  (fp_line (start 2.794 -0.0762) (end 2.794 0.0508) (layer F.SilkS) (width 0.2))
  (fp_line (start 2.286 -0.0762) (end 2.286 0.0508) (layer F.SilkS) (width 0.2))
  (fp_line (start -5.334 -0.0762) (end -5.334 0.0508) (layer F.SilkS) (width 0.2))
  (fp_line (start -4.826 -0.0762) (end -4.826 0.0508) (layer F.SilkS) (width 0.2))
  (fp_line (start 0.254 -0.0762) (end 0.254 0.0508) (layer F.SilkS) (width 0.2))
  (fp_line (start -0.254 -0.0762) (end -0.254 0.0508) (layer F.SilkS) (width 0.2))
  (fp_line (start -2.286 -0.0762) (end -2.286 0.0508) (layer F.SilkS) (width 0.2))
  (fp_line (start -2.794 -0.0762) (end -2.794 0.0508) (layer F.SilkS) (width 0.2))
  (fp_line (start 5.334 -2.794) (end 5.334 -2.4368) (layer F.SilkS) (width 0.2))
  (fp_line (start 4.826 -2.794) (end 4.826 -2.4368) (layer F.SilkS) (width 0.2))
  (fp_line (start -5.334 -2.794) (end -5.334 -2.4368) (layer F.SilkS) (width 0.2))
  (fp_line (start -4.826 -2.794) (end -4.826 -2.4368) (layer F.SilkS) (width 0.2))
  (fp_line (start -2.794 -2.794) (end -2.794 -2.4368) (layer F.SilkS) (width 0.2))
  (fp_line (start -2.286 -2.794) (end -2.286 -2.4368) (layer F.SilkS) (width 0.2))
  (fp_line (start 2.794 -2.794) (end 2.794 -2.4368) (layer F.SilkS) (width 0.2))
  (fp_line (start 2.286 -2.794) (end 2.286 -2.4368) (layer F.SilkS) (width 0.2))
  (fp_line (start 0.254 -2.794) (end 0.254 -2.4368) (layer F.SilkS) (width 0.2))
  (fp_line (start -0.254 -2.794) (end -0.254 -2.4368) (layer F.SilkS) (width 0.2))
  (fp_line (start -6.35 -2.794) (end -3.81 -5.334) (layer F.SilkS) (width 0.2))
  (fp_line (start -6.35 -5.334) (end -3.81 -2.794) (layer F.SilkS) (width 0.2))
  (fp_line (start -5.207 -5.334) (end -5.207 -11.303) (layer F.SilkS) (width 0.2))
  (fp_line (start -5.207 -11.303) (end -4.953 -11.303) (layer F.SilkS) (width 0.2))
  (fp_line (start -4.953 -11.303) (end -4.953 -5.461) (layer F.SilkS) (width 0.2))
  (fp_line (start -4.953 -5.461) (end -5.08 -5.461) (layer F.SilkS) (width 0.2))
  (fp_line (start -5.08 -5.461) (end -5.08 -11.303) (layer F.SilkS) (width 0.2))
  (fp_line (start 3.81 -2.794) (end 3.81 -5.334) (layer F.SilkS) (width 0.2))
  (fp_line (start 3.81 -2.794) (end 6.35 -2.794) (layer F.SilkS) (width 0.2))
  (fp_line (start 4.826 -5.334) (end 4.826 -11.43) (layer F.SilkS) (width 0.2))
  (fp_line (start 4.826 -11.43) (end 5.334 -11.43) (layer F.SilkS) (width 0.2))
  (fp_line (start 5.334 -11.43) (end 5.334 -5.334) (layer F.SilkS) (width 0.2))
  (fp_line (start 6.35 -5.334) (end 3.81 -5.334) (layer F.SilkS) (width 0.2))
  (fp_line (start 6.35 -2.794) (end 6.35 -5.334) (layer F.SilkS) (width 0.2))
  (fp_line (start -1.27 -2.794) (end -1.27 -5.334) (layer F.SilkS) (width 0.2))
  (fp_line (start -1.27 -2.794) (end 1.27 -2.794) (layer F.SilkS) (width 0.2))
  (fp_line (start 1.27 -2.794) (end 1.27 -5.334) (layer F.SilkS) (width 0.2))
  (fp_line (start -0.254 -5.334) (end -0.254 -11.43) (layer F.SilkS) (width 0.2))
  (fp_line (start -0.254 -11.43) (end 0.254 -11.43) (layer F.SilkS) (width 0.2))
  (fp_line (start 0.254 -11.43) (end 0.254 -5.334) (layer F.SilkS) (width 0.2))
  (fp_line (start 1.27 -5.334) (end -1.27 -5.334) (layer F.SilkS) (width 0.2))
  (fp_line (start 3.81 -5.334) (end 1.27 -5.334) (layer F.SilkS) (width 0.2))
  (fp_line (start 2.794 -11.43) (end 2.794 -5.334) (layer F.SilkS) (width 0.2))
  (fp_line (start 2.286 -11.43) (end 2.794 -11.43) (layer F.SilkS) (width 0.2))
  (fp_line (start 2.286 -5.334) (end 2.286 -11.43) (layer F.SilkS) (width 0.2))
  (fp_line (start 3.81 -2.794) (end 3.81 -5.334) (layer F.SilkS) (width 0.2))
  (fp_line (start 1.27 -2.794) (end 3.81 -2.794) (layer F.SilkS) (width 0.2))
  (fp_line (start 1.27 -2.794) (end 1.27 -5.334) (layer F.SilkS) (width 0.2))
  (fp_line (start -3.81 -2.794) (end -3.81 -5.334) (layer F.SilkS) (width 0.2))
  (fp_line (start -3.81 -2.794) (end -1.27 -2.794) (layer F.SilkS) (width 0.2))
  (fp_line (start -1.27 -2.794) (end -1.27 -5.334) (layer F.SilkS) (width 0.2))
  (fp_line (start -2.794 -5.334) (end -2.794 -11.43) (layer F.SilkS) (width 0.2))
  (fp_line (start -2.794 -11.43) (end -2.286 -11.43) (layer F.SilkS) (width 0.2))
  (fp_line (start -2.286 -11.43) (end -2.286 -5.334) (layer F.SilkS) (width 0.2))
  (fp_line (start -1.27 -5.334) (end -3.81 -5.334) (layer F.SilkS) (width 0.2))
  (fp_line (start -3.81 -5.334) (end -6.35 -5.334) (layer F.SilkS) (width 0.2))
  (fp_line (start -4.826 -11.43) (end -4.826 -5.334) (layer F.SilkS) (width 0.2))
  (fp_line (start -5.334 -11.43) (end -4.826 -11.43) (layer F.SilkS) (width 0.2))
  (fp_line (start -5.334 -5.334) (end -5.334 -11.43) (layer F.SilkS) (width 0.2))
  (fp_line (start -3.81 -2.794) (end -3.81 -5.334) (layer F.SilkS) (width 0.2))
  (fp_line (start -6.35 -2.794) (end -3.81 -2.794) (layer F.SilkS) (width 0.2))
  (fp_line (start -6.35 -2.794) (end -6.35 -5.334) (layer F.SilkS) (width 0.2))
  (pad 1 thru_hole rect (at -5.08 1.27) (size 1.7272 1.7272) (drill 1.0) (layers *.Cu *.Mask F.SilkS))
  (pad 3 thru_hole oval (at -2.54 1.27) (size 1.7272 1.7272) (drill 1.0) (layers *.Cu *.Mask F.SilkS))
  (pad 5 thru_hole oval (at 0 1.27) (size 1.7272 1.7272) (drill 1.0) (layers *.Cu *.Mask F.SilkS))
  (pad 7 thru_hole oval (at 2.54 1.27) (size 1.7272 1.7272) (drill 1.0) (layers *.Cu *.Mask F.SilkS))
  (pad 9 thru_hole oval (at 5.08 1.27) (size 1.7272 1.7272) (drill 1.0) (layers *.Cu *.Mask F.SilkS))
  (pad 10 thru_hole oval (at 5.08 -1.27) (size 1.7272 1.7272) (drill 1.0) (layers *.Cu *.Mask F.SilkS))
  (pad 8 thru_hole oval (at 2.54 -1.27) (size 1.7272 1.7272) (drill 1.0) (layers *.Cu *.Mask F.SilkS))
  (pad 6 thru_hole oval (at 0 -1.27) (size 1.7272 1.7272) (drill 1.0) (layers *.Cu *.Mask F.SilkS))
  (pad 4 thru_hole oval (at -2.54 -1.27) (size 1.7272 1.7272) (drill 1.0) (layers *.Cu *.Mask F.SilkS))
  (pad 2 thru_hole oval (at -5.08 -1.27) (size 1.7272 1.7272) (drill 1.0) (layers *.Cu *.Mask F.SilkS))
  (model Pin_Headers/Pin_Header_Angled_2x05.wrl
    (at (xyz 0 0 0))
    (scale (xyz 1 1 1))
    (rotate (xyz 0 0 0))
  )
)
